#Mages

estate_mages_organization_magisterium = {
	icon = privilege_promote_maratha_nobility
	max_absolutism = -10
	loyalty = -0.05
	land_share = 5
	influence = 0.2
	can_select = {
		OR = {
			if = {
				limit = { 
					exists = A85
					NOT = { tag = A85 }
				}
				A85 = {	#Magisterium likes you
					has_opinion = { who = ROOT value = 200 }
				}
			}
			is_part_of_hre = yes
			tag = A85
		}

		if = {
			limit = { has_mages_organization_privilege = yes }
			
			NOT = {
				estate_influence = {
					estate = estate_mages
					influence = 25
				}
			}
			estate_loyalty = {
				estate = estate_mages
				loyalty = 30
			}
			
			if = {
				limit = {
					estate_loyalty = {
						estate = estate_mages
						loyalty = 60
					}
				}
				adm_power = 100
				stability = 1
			}
			else = {
				adm_power = 200
				stability = 2
			}
		}
		has_discovered = 8 #Anbenncost
	}
	can_revoke = {
		always = no
	}
	on_granted = {
		custom_tooltip = mages_benefits_tt
		if = {
			limit = {
				has_mages_organization_privilege = yes
				NOT = { has_estate_privilege = estate_mages_organization_magisterium }
			}
			if = {
				limit = {
					estate_loyalty = {
						estate = estate_mages
						loyalty = 60
					}
				}
				add_adm_power = -100
				add_stability = -1
			}
			else = {
				add_stability = -2
				add_adm_power = -200
			}
			custom_tooltip = estate_mages_organization_cost_tooltip
			custom_tooltip = estate_mages_organization_revoke_tooltip
			hidden_effect = {
				if = {
					limit = { has_estate_privilege = estate_mages_organization_state }
					remove_estate_privilege = estate_mages_organization_state
				}
				if = {
					limit = { has_estate_privilege = estate_mages_organization_guilds }
					remove_estate_privilege = estate_mages_organization_guilds
				}
				if = {
					limit = { has_estate_privilege = estate_mages_organization_religious }
					remove_estate_privilege = estate_mages_organization_religious
				}
			}
		}
		else = {
			custom_tooltip = estate_mages_magisterium_relations_tooltip
		}
		hidden_effect = {
			if = {
				limit = {
					NOT = { is_year = 1445 }
				}
				take_estate_land_share_massive = { estate = estate_mages }
			}
		}
	}
	penalties = {
	}
	benefits = {
		global_tax_modifier = 0.05
		imperial_authority = 0.05
	}
	conditional_modifier = {
		trigger = {
			NOT = { tag = A85 }
			NOT = {
				reverse_has_opinion = {
					who = A85 #Magisterium
					value = -150
				}
			}
		}
		modifier = {
			mages_loyalty_modifier = -0.1
		}
	}
	conditional_modifier = {
		trigger = {
			NOT = { tag = A85 }
			reverse_has_opinion = {
				who = A85 #Magisterium
				value = -150
			}
			NOT = {
				reverse_has_opinion = {
					who = A85 #Magisterium
					value = -100
				}
			}
		}
		modifier = {
			mages_loyalty_modifier = -0.05
		}
	}
	conditional_modifier = {
		trigger = {
			NOT = { tag = A85 }
			reverse_has_opinion = {
				who = A85 #Magisterium
				value = 100
			}
			NOT = {
				reverse_has_opinion = {
					who = A85 #Magisterium
					value = 150
				}
			}
		}
		modifier = {
			mages_loyalty_modifier = 0.05
		}
	}
	conditional_modifier = {
		trigger = {
			NOT = { tag = A85 }
			reverse_has_opinion = {
				who = A85 #Magisterium
				value = 150
			}
		}
		modifier = {
			mages_loyalty_modifier = 0.1
		}
	}
	conditional_modifier = {
		trigger = {
			tag = A85
		}
		modifier = {
			mages_loyalty_modifier = 0.15
		}
	}
	ai_will_do = {
		factor = 5
		modifier = {
			factor = 100
			tag = A85
		}
		modifier = {
			factor = 10
			is_part_of_hre = yes
		}
	}
}


estate_mages_organization_state = {
	icon = privilege_promote_maratha_nobility
	loyalty = 0.1
	influence = 0.1
	land_share = 10
	is_valid = {
		NOT = { tag = A85 }
	}
	can_select = {
		if = {
			limit = { has_mages_organization_privilege = yes }
			
			NOT = {
				estate_influence = {
					estate = estate_mages
					influence = 25
				}
			}
			estate_loyalty = {
				estate = estate_mages
				loyalty = 30
			}
			
			if = {
				limit = {
					estate_loyalty = {
						estate = estate_mages
						loyalty = 60
					}
				}
				adm_power = 100
				stability = 1
			}
			else = {
				adm_power = 200
				stability = 2
			}
		}
	}
	can_revoke = {
		always = no
	}
	on_granted = {
		custom_tooltip = mages_benefits_tt
		if = {
			limit = {
				has_mages_organization_privilege = yes
				NOT = { has_estate_privilege = estate_mages_organization_state }
			}
			if = {
				limit = {
					estate_loyalty = {
						estate = estate_mages
						loyalty = 60
					}
				}
				add_adm_power = -100
				add_stability = -1
			}
			else = {
				add_stability = -2
				add_adm_power = -200
			}
			custom_tooltip = estate_mages_organization_cost_tooltip
			custom_tooltip = estate_mages_organization_revoke_tooltip
			hidden_effect = {
				if = {
					limit = { has_estate_privilege = estate_mages_organization_magisterium }
					remove_estate_privilege = estate_mages_organization_magisterium
					country_event = { id = magic_estate.18 days = 15 random = 30 }
				}
				if = {
					limit = { has_estate_privilege = estate_mages_organization_guilds }
					remove_estate_privilege = estate_mages_organization_guilds
				}
				if = {
					limit = { has_estate_privilege = estate_mages_organization_religious }
					remove_estate_privilege = estate_mages_organization_religious
				}
			}
		}
		hidden_effect = {
			if = {
				limit = {
					NOT = { is_year = 1445 }
				}
				take_estate_land_share_gigantic = { estate = estate_mages }
			}
		}
	}
	penalties = {
	}
	benefits = {
		global_tax_modifier = -0.05
	}
	ai_will_do = {
		factor = 5
		modifier = {
			factor = 10
			current_age = age_of_absolutism
		}
		modifier = {
			factor = 0
			has_estate_privilege = estate_mages_organization_magisterium
		}
	}
}

estate_mages_organization_guilds = {
	icon = privilege_promote_maratha_nobility
	max_absolutism = -5
	#loyalty = -0.05
	influence = 0.1
	is_valid = {
		NOT = { tag = A85 }
	}
	can_select = {
		if = {
			limit = { has_mages_organization_privilege = yes }
			
			NOT = {
				estate_influence = {
					estate = estate_mages
					influence = 25
				}
			}
			estate_loyalty = {
				estate = estate_mages
				loyalty = 30
			}
			
			if = {
				limit = {
					estate_loyalty = {
						estate = estate_mages
						loyalty = 60
					}
				}
				adm_power = 100
				stability = 1
			}
			else = {
				adm_power = 200
				stability = 2
			}
		}
	}
	can_revoke = {
		always = no
	}
	on_granted = {
		custom_tooltip = mages_benefits_tt
		if = {
			limit = {
				has_mages_organization_privilege = yes
				NOT = { has_estate_privilege = estate_mages_organization_guilds }
			}
			if = {
				limit = {
					estate_loyalty = {
						estate = estate_mages
						loyalty = 60
					}
				}
				add_adm_power = -100
				add_stability = -1
			}
			else = {
				add_stability = -2
				add_adm_power = -200
			}
			custom_tooltip = estate_mages_organization_cost_tooltip
			custom_tooltip = estate_mages_organization_revoke_tooltip
			hidden_effect = {
				if = {
					limit = { has_estate_privilege = estate_mages_organization_magisterium }
					country_event = { id = magic_estate.18 days = 15 random = 30 }
					remove_estate_privilege = estate_mages_organization_magisterium
				}
				if = {
					limit = { has_estate_privilege = estate_mages_organization_state }
					remove_estate_privilege = estate_mages_organization_state
				}
				if = {
					limit = { has_estate_privilege = estate_mages_organization_religious }
					remove_estate_privilege = estate_mages_organization_religious
				}
			}
		}
	}
	penalties = {
	}
	benefits = {
		#global_tax_modifier = 0.05
	}
	ai_will_do = {
		factor = 0
	}
}

estate_mages_organization_religious = {
	icon = privilege_promote_maratha_nobility
	max_absolutism = -5
	loyalty = -0.05
	influence = 0.15
	land_share = 5
	is_valid = {
		NOT = { tag = A85 }
		OR = {
			religion = ravelian
			religion = the_jadd
			religion = bulwari_sun_cult
			religion = old_bulwari_sun_cult
			religion = xhazobkult
			religion = skaldhyrric_faith 
			religion = righteous_path
			religion = lefthand_path
		}
	}
	can_select = {
		if = {
			limit = { has_mages_organization_privilege = yes }
			
			NOT = {
				estate_influence = {
					estate = estate_mages
					influence = 25
				}
			}
			estate_loyalty = {
				estate = estate_mages
				loyalty = 30
			}
			
			if = {
				limit = {
					estate_loyalty = {
						estate = estate_mages
						loyalty = 60
					}
				}
				adm_power = 100
				stability = 1
			}
			else = {
				adm_power = 200
				stability = 2
			}
		}
	}
	can_revoke = {
		always = no
	}
	on_granted = {
		custom_tooltip = mages_benefits_tt
		if = {
			limit = {
				has_mages_organization_privilege = yes
				NOT = { has_estate_privilege = estate_mages_organization_religious }
			}
			if = {
				limit = {
					estate_loyalty = {
						estate = estate_mages
						loyalty = 60
					}
				}
				add_adm_power = -100
				add_stability = -1
			}
			else = {
				add_stability = -2
				add_adm_power = -200
			}
			custom_tooltip = estate_mages_organization_cost_tooltip
			custom_tooltip = estate_mages_organization_revoke_tooltip
			hidden_effect = {
				if = {
					limit = { has_estate_privilege = estate_mages_organization_magisterium }
					country_event = { id = magic_estate.18 days = 15 random = 30 }
					remove_estate_privilege = estate_mages_organization_magisterium
				}
				if = {
					limit = { has_estate_privilege = estate_mages_organization_state }
					remove_estate_privilege = estate_mages_organization_state
				}
				if = {
					limit = { has_estate_privilege = estate_mages_organization_guilds }
					remove_estate_privilege = estate_mages_organization_guilds
				}
			}
		}
		hidden_effect = {
			if = {
				limit = {
					NOT = { is_year = 1445 }
				}
				take_estate_land_share_massive = { estate = estate_mages }
			}
		}
	}
	on_invalid = {
		custom_tooltip = estate_mages_religious_invalid_tooltip
		hidden_effect = {
			if = {
				limit = { NOT = { has_mages_organization_privilege = yes } }
				set_estate_privilege = estate_mages_organization_state
			}
		}
	}
	penalties = {
	}
	benefits = {
		global_missionary_strength = 0.02
		church_loyalty_modifier = 0.05
		church_influence_modifier = 0.05
		
		papal_influence = 0.5
		church_power_modifier = 0.5
		monthly_fervor_increase = 1
	}
	ai_will_do = {
		factor = 5
		modifier = {
			factor = 0.8
			OR = {
				NOT = { crown_land_share = 40 }
				AND = {
					is_absolutism_active = yes
					NOT = { crown_land_share = 60 }
				}
			}
		}
		modifier = {
			factor = 0.8
			OR = {
				NOT = { crown_land_share = 30 }
				AND = {
					is_absolutism_active = yes
					NOT = { crown_land_share = 50 }
				}
			}
		}
		modifier = {
			factor = 0.8
			is_absolutism_active = yes
		}
	}
}

estate_mages_battlemage_academies = {
	icon = privilege_demand_more_troops
	max_absolutism = -5
	influence = 0.05
	land_share = 10
	can_select = {
		army_tradition = 15
		estate_influence = {
			estate = estate_mages
			influence = 30
		}
	}
	on_granted = {
		add_army_tradition = -15
		
		custom_tooltip = tooltip_estate_mages_battlemage_academies
	}
	penalties = {
		army_tradition_decay = 0.01
		country_military_power = -1
	}
	benefits = {
		land_morale = 0.05
	}
	ai_will_do = {
		factor = 5
		modifier = {
			factor = 2
			personality = ai_militarist
		}
		modifier = {
			factor = 1.5
			is_at_war = yes
		}
		modifier = {
			factor = 0
			NOT = { army_tradition = 1 }	#if you have hella low army tradition, you're gonna want to turn this off
		}
	}
}


estate_mages_patronage_of_the_magical_arts = {	#magical patronage 
	icon = privilege_give_money
	max_absolutism = -5
	loyalty = 0.05
	influence = 0.05
	land_share = 5
	penalties = {
		global_tax_modifier = -0.05
	}
	benefits = {
		prestige = 0.5
	}
	on_granted = {
		if = {
			limit = { prestige = 50 }
			add_prestige = 10
		}
		else_if = {
			limit = { prestige = 0 }
			add_prestige = 15
		}
		else_if = {
			limit = { prestige = -25 }
			add_prestige = 20
		}
		else_if = {
			limit = { prestige = -50 }
			add_prestige = 25
		}
		else = {
			add_prestige = 30
		}
	}
	ai_will_do = {
		factor = 5
		modifier = {
			factor = 2
			NOT = {
				estate_influence = {
					estate = estate_mages
					influence = 10
				}
			}
		}
		modifier = {
			factor = 0.5
			NOT = { years_of_income = 0.5 }
		}
	}
}

estate_mages_reduced_research_regulations = {
	icon = privilege_grant_autonomy
	loyalty = 0.05
	influence = 0.1
	max_absolutism = -10
	on_granted = {
		custom_tooltip = tooltip_estate_mages_reduced_research_regulations
	}
	penalties = {
		diplomatic_reputation = -2
	}
	benefits = {
	}
	ai_will_do = {
		factor = 5
		modifier = {	#witch kings baby
			factor = 1.5
			capital_scope = { superregion = escann_superregion }
			current_age = age_of_absolutism
		}
		modifier = {	#witch kings baby
			factor = 2
			capital_scope = { superregion = escann_superregion }
			current_age = age_of_absolutism
		}
		modifier = {	#chaingrasper is evil
			factor = 20
			tag = H74
		}
		modifier = {
			factor = 0.75
			NOT = { diplomatic_reputation = 1 }	#dont want to take this if you have low dip rep anyway
		}
		modifier = {
			factor = 1.5
			ruler_has_personality = mage_personality
		}
		modifier = {
			factor = 2
			OR = {
				ruler_has_personality = naive_personality
				ruler_has_personality = free_thinker_personality
				ruler_has_personality = zealot_personality
			}
		}
		modifier = {
			factor = 0.75
			OR = {
				ruler_has_personality = careful_personality
				ruler_has_personality = just_personality
				ruler_has_personality = righteous_personality
			}
		}
		modifier = {	
			factor = 0.5
			has_estate_privilege = estate_mages_organization_magisterium
		}
	}
}

# estate_mages_loyalty_privilege = {
	# icon = privilege_royal_authority
	# max_absolutism = -10
	# loyalty = 0.1
	# influence = 0.1
	# penalties = {
	# }
	# benefits = {
	# }
	# ai_will_do = {
		# factor = 10
		# modifier = {
			# factor = 0
			# is_absolutism_active = yes
		# }
	# }
# }

estate_mages_monopoly_of_damestear = {
	icon = privilege_monopoly_of_goods_damestear
	max_absolutism = -10
	loyalty = 0.1
	is_valid = {
		has_dlc = "Emperor"
		any_owned_province = {
			trade_goods = damestear
		}
	}
	can_select = {
		custom_trigger_tooltip = {
			tooltip = unavailable_during_revolution_disaster
			NOT = { has_disaster = revolution }
			NOT = {
				has_disaster_progress = {
					disaster = revolution
					value = 1
				}
			}
			# NOT = { has_disaster = french_revolution }
			# NOT = {
				# has_disaster_progress = {
					# disaster = french_revolution
					# value = 1
				# }
			# }
		}
	}
	on_granted = {
		add_mercantilism = 1
		add_years_of_owned_provinces_production_income = {
			years = 8
			trigger = {
				trade_goods = damestear
			}
			custom_tooltip = MONOPOLY_INCOME_DAMESTEAR_DESC
		}
		custom_tooltip = estate_mages_monopoly_of_damestear_effect_tooltip
		hidden_effect = {
			every_owned_province = {
				limit = {
					trade_goods = damestear
				}
				add_province_modifier = {
					name = estate_mages_monopoly_of_damestear_mod
					duration = -1
				}
			}
		}
	}
	on_revoked = {
		custom_tooltip = estate_mages_monopoly_of_damestear_revoke_tooltip
		hidden_effect = {
			every_owned_province = {
				limit = {
					has_province_modifier = estate_mages_monopoly_of_damestear_mod
				}
				remove_province_modifier = estate_mages_monopoly_of_damestear_mod
			}
		}
	}
	on_invalid = {
		custom_tooltip = estate_mages_monopoly_of_damestear_revoke_tooltip
		hidden_effect = {
			every_owned_province = {
				limit = {
					has_province_modifier = estate_mages_monopoly_of_damestear_mod
				}
				remove_province_modifier = estate_mages_monopoly_of_damestear_mod
			}
		}
	}
	penalties = {
	}
	benefits = {
	}
	cooldown_years = 10
	on_cooldown_expires = {
		country_event = { id = monopoly_privileges.12 }
	}
	ai_will_do = { #having the AI use these could lead to an unstoppable downwards spiral if it can't work out how to get rid of them
		factor = 0
	}
}

estate_mages_cast_spells = {
	icon = privilege_tolerance_heathen
	can_select = {
		estate_influence = {
			estate = estate_mages
			influence = 15
		}
	}
	on_granted = {
		country_event = { id = magic_estate.1 }
	}
	penalties = {
	}
	benefits = {
	}
	cooldown_years = 10
	on_cooldown_expires = {
		remove_estate_privilege = estate_mages_cast_spells
	}
	ai_will_do = {
		factor = 0 #ai will crash the game on linux. it uses a hidden decision in mages.txt to do this
	}
}

#Adventurers
estate_adventurers_land_rights = {
	icon = privilege_grant_autonomy
	land_share = 5
	max_absolutism = -5
	loyalty = 0.05
	influence = 0.05
	can_select = {
	}
	on_granted = {
	}
	penalties = {
	}
	benefits = {
		governing_capacity = 100
	}
	ai_will_do = {
		factor = 5
		modifier = {
			factor = 1.4
			num_of_territories = 5
		}
		modifier = {
			factor = 1.5
			num_of_territories = 10
		}
		modifier = {
			factor = 1.5
			num_of_territories = 15
		}
		modifier = {
			factor = 0
			OR = {
				NOT = { crown_land_share = 25 }
				estate_influence = {
					estate = estate_adventurers
					influence = 75
				}
			}
			NOT = { has_estate_privilege = estate_adventurers_land_rights }
		}
		modifier = {
			factor = 0
			NOT = { num_of_territories = 1 }
		}
		modifier = {
			factor = 0.8
			OR = {
				NOT = { crown_land_share = 40 }
				AND = {
					is_absolutism_active = yes
					NOT = { crown_land_share = 60 }
				}
			}
			NOT = { has_estate_privilege = estate_adventurers_land_rights }
		}
		modifier = {
			factor = 0.8
			OR = {
				NOT = { crown_land_share = 30 }
				AND = {
					is_absolutism_active = yes
					NOT = { crown_land_share = 50 }
				}
			}
			NOT = { has_estate_privilege = estate_adventurers_land_rights }
		}
		modifier = {
			factor = 0.8
			is_absolutism_active = yes
		}
	}
}
estate_raj_ministries_delegate_territorial_management = {
	icon = privilege_grant_new_world_charter
	max_absolutism = -10
	influence = 0.1
	loyalty = 0.05
	land_share = 5
	benefits = {
		development_cost = -0.05
	}
	modifier_by_land_ownership = {
		governing_capacity_modifier = 0.5
		vassal_income = 0.5
	}
	mechanics = {
		# exempt_from_seize_land
	}
	ai_will_do = {
		factor = 0
	}
}

estate_adventurers_organization_chronicler_grants = {
	icon = privilege_promote_maratha_nobility
	max_absolutism = -5
	loyalty = 0.05
	influence = 0.05
	land_share = 5
	can_select = {
		if = {
			limit = { has_adventurers_organization_privilege = yes }
			
			NOT = {
				estate_influence = {
					estate = estate_adventurers
					influence = 25
				}
			}
			estate_loyalty = {
				estate = estate_adventurers
				loyalty = 30
			}
			
			if = {
				limit = {
					estate_loyalty = {
						estate = estate_adventurers
						loyalty = 60
					}
				}
				mil_power = 100
				stability = 1
			}
			else = {
				mil_power = 200
				stability = 2
			}
		}
		has_discovered = 8 #Anbenncost
	}
	can_revoke = {
		always = no
	}
	on_granted = {
		if = {
			limit = {
				has_adventurers_organization_privilege = yes
				NOT = { has_estate_privilege = estate_adventurers_organization_chronicler_grants }
			}
			if = {
				limit = {
					estate_loyalty = {
						estate = estate_adventurers
						loyalty = 60
					}
				}
				add_mil_power = -100
				add_stability = -1
			}
			else = {
				add_stability = -2
				add_mil_power = -200
			}
			custom_tooltip = estate_adventurers_organization_cost_tooltip
			custom_tooltip = estate_adventurers_organization_revoke_tooltip
			hidden_effect = {
				if = {
					limit = { has_estate_privilege = estate_adventurers_organization_land_of_adventure }
					remove_estate_privilege = estate_adventurers_organization_land_of_adventure
				}
				if = {
					limit = { has_estate_privilege = estate_adventurers_organization_licensed_adventurers }
					remove_estate_privilege = estate_adventurers_organization_licensed_adventurers
				}
			}
		}
		hidden_effect = {
			if = {
				limit = {
					NOT = { is_year = 1445 }
				}
				take_estate_land_share_massive = { estate = estate_adventurers }
			}
		}
	}
	penalties = {
		mercenary_manpower = -0.2
	}
	benefits = {
		global_institution_spread = 0.2
		innovativeness_gain = 0.25
	}
	ai_will_do = {
		factor = 1
		modifier = {
			factor = 10
			any_known_country = {
				institution_difference = {
					who = ROOT
					value = 2
				}
			}
		}
	}
}

estate_adventurers_organization_licensed_adventurers = {
	icon = privilege_promote_maratha_nobility
	loyalty = 0.1
	influence = 0.15
	can_select = {
		if = {
			limit = { has_adventurers_organization_privilege = yes }
			
			NOT = {
				estate_influence = {
					estate = estate_adventurers
					influence = 25
				}
			}
			estate_loyalty = {
				estate = estate_adventurers
				loyalty = 30
			}
			
			if = {
				limit = {
					estate_loyalty = {
						estate = estate_adventurers
						loyalty = 60
					}
				}
				mil_power = 100
				stability = 1
			}
			else = {
				mil_power = 200
				stability = 2
			}
		}
	}
	can_revoke = {
		always = no
	}
	on_granted = {
		if = {
			limit = {
				has_adventurers_organization_privilege = yes
				NOT = { has_estate_privilege = estate_adventurers_organization_licensed_adventurers }
			}
			if = {
				limit = {
					estate_loyalty = {
						estate = estate_adventurers
						loyalty = 60
					}
				}
				add_mil_power = -100
				add_stability = -1
			}
			else = {
				add_stability = -2
				add_mil_power = -200
			}
			custom_tooltip = estate_adventurers_organization_cost_tooltip
			custom_tooltip = estate_adventurers_organization_revoke_tooltip
			hidden_effect = {
				if = {
					limit = { has_estate_privilege = estate_adventurers_organization_land_of_adventure }
					remove_estate_privilege = estate_adventurers_organization_land_of_adventure
				}
				if = {
					limit = { has_estate_privilege = estate_adventurers_organization_chronicler_grants }
					remove_estate_privilege = estate_adventurers_organization_chronicler_grants
				}
			}
		}
	}
	penalties = {
	}
	benefits = {
		global_tax_modifier = 0.05
	}
	ai_will_do = {
		factor = 5
		modifier = {
			factor = 10
			current_age = age_of_absolutism
		}
		modifier = {
			factor = 0
			has_discovered = 8 #Anbenncost
			any_known_country = {
				institution_difference = {
					who = ROOT
					value = 2
				}
			}
		}
	}
}

estate_adventurers_organization_land_of_adventure = {
	icon = privilege_promote_maratha_nobility
	max_absolutism = -10
	#loyalty = 0.05
	influence = 0.1
	can_select = {
		if = {
			limit = { has_adventurers_organization_privilege = yes }
			
			NOT = {
				estate_influence = {
					estate = estate_adventurers
					influence = 25
				}
			}
			estate_loyalty = {
				estate = estate_adventurers
				loyalty = 30
			}
			
			if = {
				limit = {
					estate_loyalty = {
						estate = estate_adventurers
						loyalty = 60
					}
				}
				mil_power = 100
				stability = 1
			}
			else = {
				mil_power = 200
				stability = 2
			}
		}
	}
	can_revoke = {
		always = no
	}
	on_granted = {
		if = {
			limit = {
				has_adventurers_organization_privilege = yes
				NOT = { has_estate_privilege = estate_adventurers_organization_land_of_adventure }
			}
			if = {
				limit = {
					estate_loyalty = {
						estate = estate_adventurers
						loyalty = 60
					}
				}
				add_mil_power = -100
				add_stability = -1
			}
			else = {
				add_stability = -2
				add_mil_power = -200
			}
			custom_tooltip = estate_adventurers_organization_cost_tooltip
			custom_tooltip = estate_adventurers_organization_revoke_tooltip
			hidden_effect = {
				if = {
					limit = { has_estate_privilege = estate_adventurers_organization_licensed_adventurers }
					remove_estate_privilege = estate_adventurers_organization_licensed_adventurers
				}
				if = {
					limit = { has_estate_privilege = estate_adventurers_organization_chronicler_grants }
					remove_estate_privilege = estate_adventurers_organization_chronicler_grants
				}
			}
		}
	}
	penalties = {
	}
	benefits = {
		mercenary_manpower = 0.25
	}
	ai_will_do = {
		factor = 0
	}
}

estate_adventurers_free_company_rosters = {
	icon = privilege_demand_more_troops
	max_absolutism = -5
	influence = 0.05
	can_select = {
		army_tradition = 15
	}
	on_granted = {
		add_army_tradition = -15
	}
	penalties = {
		
	}
	benefits = {
		mercenary_discipline = 0.05
	}
	ai_will_do = {
		factor = 10
	}
}

estate_adventurers_ennoblement_of_adventurers = {
	icon = privilege_royal_authority
	max_absolutism = -5
	loyalty = 0.1
	land_share = 5
	can_select = {
		has_estate = estate_nobles
	}
	on_granted = {
	}
	penalties = {
		nobles_loyalty_modifier = -0.05
	}
	benefits = {
		governing_capacity = 100
	}
	conditional_modifier = {		#part of arbaran's mission tree
		trigger = {
			has_country_flag = arbaran_improved_ennoblement_privilege
		}
		modifier = {
			mercenary_cost = -0.20
			mercenary_discipline = 0.05
		}
	}
	ai_will_do = {
		factor = 5
		modifier = {
			factor = 5
			tag = A46			#ennoblement of adventurers is a very Arbarani thing to do, it's part of their national ideas, also it will help the AI complete a mission
		}
		modifier = {
			factor = 1.4
			num_of_territories = 5
		}
		modifier = {
			factor = 1.5
			num_of_territories = 10
		}
		modifier = {
			factor = 1.5
			num_of_territories = 15
		}
		modifier = {
			factor = 0
			OR = {
				NOT = { crown_land_share = 25 }
				estate_influence = {
					estate = estate_adventurers
					influence = 75
				}
			}
			NOT = { has_estate_privilege = estate_adventurers_land_rights }
		}
		modifier = {
			factor = 0
			NOT = { num_of_territories = 1 }
		}
		modifier = {
			factor = 0.8
			OR = {
				NOT = { crown_land_share = 40 }
				AND = {
					is_absolutism_active = yes
					NOT = { crown_land_share = 60 }
				}
			}
			NOT = { has_estate_privilege = estate_adventurers_land_rights }
		}
		modifier = {
			factor = 0.8
			OR = {
				NOT = { crown_land_share = 30 }
				AND = {
					is_absolutism_active = yes
					NOT = { crown_land_share = 50 }
				}
			}
			NOT = { has_estate_privilege = estate_adventurers_land_rights }
		}
		modifier = {
			factor = 0.8
			is_absolutism_active = yes
		}
		modifier = {
			factor = 0.5
			NOT = {
				estate_loyalty = {
					estate = estate_burghers
					loyalty = 25
				}
			}
		}
	}
}

estate_adventurers_heroes_in_the_army = {
	icon = privilege_recruit_minister
	max_absolutism = -10
	influence = 0.2
	loyalty = -0.1
	can_select = {
		army_tradition = 30
	}
	on_granted = {
		add_army_tradition = -30
	}
	penalties = {
		yearly_army_professionalism = -0.01	#this is easily offset by hiring a general
		#drill_decay_modifier = 0.33
	}
	benefits = {
		leader_land_manuever = 1
		land_morale = 0.1
		general_cost = 0.25
	}
	ai_will_do = {
		factor = 5
		modifier = {
			factor = 0
			NOT = { crown_land_share = 25 }
			estate_influence = {
				estate = estate_adventurers
				influence = 60
			}
		}
		modifier = {
			factor = 0.8
			is_absolutism_active = yes
		}
	}
}

estate_adventurers_pioneer_initiatives = {
	icon = privilege_grant_new_world_charter
	max_absolutism = -5
	loyalty = 0.05
	influence = 0.05
	is_valid = {
		OR = {
			num_of_colonists = 1
			num_of_colonies = 1
		}
	}
	penalties = {
		global_tariffs = -0.10
	}
	benefits = {
		global_colonial_growth = 10
		colonist_placement_chance = 0.05
	}
	ai_will_do = {
		factor = 1
		modifier = {
			factor = 10
			OR = {
				tag = A01 #Lorent
				tag = A02 #Deranne
				tag = A21 #Venail
				tag = A33 #Verne
				tag = A11 #Pearlsedge
				tag = A47 #Eborthil
				tag = A29 #Busilar
				
				AND = {
					capital_scope = {
						OR = {
							continent = serpentspine
							superregion = escann_superregion
						}
					}
					any_owned_province = {
						has_empty_adjacent_province = yes
					}
				}
			}
		}
		modifier = {
			factor = 0
			is_absolutism_active = yes
		}
	}
}

estate_adventurers_generous_quest_rewards = {
	icon = privilege_give_money
	max_absolutism = -5
	loyalty = 0.1
	#influence = 0.1
	can_select = {
	}
	on_granted = {
	}
	penalties = {
		global_tax_modifier = -0.2
	}
	benefits = {
		global_unrest = -1
		mercenary_manpower = 0.1
	}
	cooldown_years = 10
	ai_will_do = {
		factor = 0
		modifier = {
			factor = 0
			is_bankrupt = yes
		}
		modifier = {
			factor = 0
			NOT = { years_of_income = 1 }
		}
		modifier = {
			factor = 0
			is_absolutism_active = yes
		}
	}
}

estate_adventurers_advisors = {
	icon = privilege_empty_throne
	max_absolutism = -10
	influence = 0.1
	loyalty = 0.05
	penalties = {
		stability_cost_modifier = 0.25
	}
	benefits = {
		advisor_cost = -0.1
	}
	ai_will_do = {
		factor = 8
		modifier = {
			factor = 0.5
			is_absolutism_active = yes
		}
		modifier = {
			factor = 1.3
			NOT = { adm = 2 }
		}
		modifier = {
			factor = 0.75
			adm = 5
		}
		modifier = {
			factor = 1.3
			NOT = { dip = 2 }
		}
		modifier = {
			factor = 0.75
			dip = 5
		}
		modifier = {
			factor = 1.3
			NOT = { mil = 2 }
		}
		modifier = {
			factor = 0.75
			mil = 5
		}
		modifier = {
			factor = 0.8
			is_absolutism_active = yes
		}
	}
}

estate_adventurers_monopoly_of_slaves = {
	icon = privilege_monopoly_of_goods_slaves
	max_absolutism = -10
	loyalty = 0.1
	is_valid = {
		has_dlc = "Emperor"
		any_owned_province = {
			trade_goods = slaves
		}
	}
	can_select = {
		custom_trigger_tooltip = {
			tooltip = unavailable_during_revolution_disaster
			NOT = { has_disaster = revolution }
			NOT = {
				has_disaster_progress = {
					disaster = revolution
					value = 1
				}
			}
			# NOT = { has_disaster = french_revolution }
			# NOT = {
				# has_disaster_progress = {
					# disaster = french_revolution
					# value = 1
				# }
			# }
		}
	}
	on_granted = {
		add_mercantilism = 1
		add_years_of_owned_provinces_production_income = {
			years = 8
			trigger = {
				trade_goods = slaves
			}
			custom_tooltip = MONOPOLY_INCOME_SLAVES_DESC
		}
		custom_tooltip = estate_church_monopoly_of_slaves_effect_tooltip
		hidden_effect = {
			every_owned_province = {
				limit = {
					trade_goods = slaves
				}
				add_province_modifier = {
					name = estate_adventurers_monopoly_of_slaves_mod
					duration = -1
				}
			}
		}
	}
	on_revoked = {
		custom_tooltip = estate_church_monopoly_of_slaves_revoke_tooltip
		hidden_effect = {
			every_owned_province = {
				limit = {
					has_province_modifier = estate_adventurers_monopoly_of_slaves_mod
				}
				remove_province_modifier = estate_adventurers_monopoly_of_slaves_mod
			}
		}
	}
	on_invalid = {
		custom_tooltip = estate_church_monopoly_of_slaves_revoke_tooltip
		hidden_effect = {
			every_owned_province = {
				limit = {
					has_province_modifier = estate_adventurers_monopoly_of_slaves_mod
				}
				remove_province_modifier = estate_adventurers_monopoly_of_slaves_mod
			}
		}
	}
	penalties = {
	}
	benefits = {
	}
	cooldown_years = 10
	on_cooldown_expires = {
		country_event = { id = monopoly_privileges.13 }
	}
	ai_will_do = {
		factor = 0
	}
}

#Artificers

estate_artificers_organization_international_gommo = {
	icon = privilege_promote_maratha_nobility
	max_absolutism = -10
	loyalty = -0.1
	influence = 0.2
	can_select = {
		if = {
			limit = { has_artificers_organization_privilege = yes }
			
			NOT = {
				estate_influence = {
					estate = estate_artificers
					influence = 25
				}
			}
			estate_loyalty = {
				estate = estate_artificers
				loyalty = 30
			}
			
			if = {
				limit = {
					estate_loyalty = {
						estate = estate_artificers
						loyalty = 60
					}
				}
				dip_power = 100
				stability = 1
			}
			else = {
				dip_power = 200
				stability = 2
			}
		}
	}
	can_revoke = {
		always = no
	}
	on_revoked = {
		custom_tooltip = artificer_points_hover_over_me_tt
	}
	on_granted = {
		custom_tooltip = artificer_points_hover_over_me_tt
		if = {
			limit = {
				has_artificers_organization_privilege = yes
				NOT = { has_estate_privilege = estate_artificers_organization_international_gommo }
			}
			if = {
				limit = {
					estate_loyalty = {
						estate = estate_artificers
						loyalty = 60
					}
				}
				add_dip_power = -100
				add_stability = -1
			}
			else = {
				add_stability = -2
				add_dip_power = -200
			}
			custom_tooltip = estate_artificers_organization_cost_tooltip
			custom_tooltip = estate_artificers_organization_revoke_tooltip
			hidden_effect = {
				if = {
					limit = { has_estate_privilege = estate_artificers_organization_state }
					remove_estate_privilege = estate_artificers_organization_state
				}
				if = {
					limit = { has_estate_privilege = estate_artificers_organization_independent_unions }
					remove_estate_privilege = estate_artificers_organization_independent_unions
				}
				if = {
					limit = { has_estate_privilege = estate_artificers_organization_ravelian_control }
					remove_estate_privilege = estate_artificers_organization_ravelian_control
				}
			}
		}
		#hidden_effect = {
		#	add_country_modifier = {
		#		name = rajput_to_artificer
		#		duration = -1
		#		hidden = yes
		#	}
		#}
	}
	mechanics = {
        enables_rajput_regiments
    }
	penalties = {
	}
	benefits = {
		production_efficiency = 0.1
		special_unit_forcelimit = 0.05
	}
	ai_will_do = {
		factor = 5
	}
}

estate_artificers_organization_state = {
	icon = privilege_promote_maratha_nobility
	loyalty = 0.1
	influence = 0.15
	land_share = 5
	can_select = {
		if = {
			limit = { has_artificers_organization_privilege = yes }
			
			NOT = {
				estate_influence = {
					estate = estate_artificers
					influence = 25
				}
			}
			estate_loyalty = {
				estate = estate_artificers
				loyalty = 30
			}
			
			if = {
				limit = {
					estate_loyalty = {
						estate = estate_artificers
						loyalty = 60
					}
				}
				dip_power = 100
				stability = 1
			}
			else = {
				dip_power = 200
				stability = 2
			}
		}
	}
	can_revoke = {
		always = no
	}
	on_revoked = {
		custom_tooltip = artificer_points_hover_over_me_tt
	}
	on_granted = {
		custom_tooltip = artificer_points_hover_over_me_tt
		if = {
			limit = {
				has_artificers_organization_privilege = yes
				NOT = { has_estate_privilege = estate_artificers_organization_state }
			}
			if = {
				limit = {
					estate_loyalty = {
						estate = estate_artificers
						loyalty = 60
					}
				}
				add_dip_power = -100
				add_stability = -1
			}
			else = {
				add_stability = -2
				add_dip_power = -200
			}
			custom_tooltip = estate_artificers_organization_cost_tooltip
			custom_tooltip = estate_artificers_organization_revoke_tooltip
			hidden_effect = {
				if = {
					limit = { has_estate_privilege = estate_artificers_organization_international_gommo }
					remove_estate_privilege = estate_artificers_organization_international_gommo
				}
				if = {
					limit = { has_estate_privilege = estate_artificers_organization_independent_unions }
					remove_estate_privilege = estate_artificers_organization_independent_unions
				}
				if = {
					limit = { has_estate_privilege = estate_artificers_organization_ravelian_control }
					remove_estate_privilege = estate_artificers_organization_ravelian_control
				}
			}
		}
		#hidden_effect = {
		#	add_country_modifier = {
		#		name = rajput_to_artificer
		#		duration = -1
		#		hidden = yes
		#	}
		#}
		hidden_effect = {
			if = {
				limit = {
					NOT = { is_year = 1445 }
				}
				take_estate_land_share_massive = { estate = estate_artificers }
			}
		}
	}
	mechanics = {
        enables_rajput_regiments
    }
	penalties = {
	}
	benefits = {
		production_efficiency = -0.1
		special_unit_forcelimit = 0.1
	}
	ai_will_do = {
		factor = 5
		modifier = {
			factor = 10
			current_age = age_of_absolutism
		}
	}
}

estate_artificers_organization_independent_unions = {
	icon = privilege_promote_maratha_nobility
	max_absolutism = -5
	loyalty = 0
	influence = 0.1
	can_select = {
		if = {
			limit = { has_artificers_organization_privilege = yes }
			
			NOT = {
				estate_influence = {
					estate = estate_artificers
					influence = 25
				}
			}
			estate_loyalty = {
				estate = estate_artificers
				loyalty = 30
			}
			
			if = {
				limit = {
					estate_loyalty = {
						estate = estate_artificers
						loyalty = 60
					}
				}
				dip_power = 100
				stability = 1
			}
			else = {
				dip_power = 200
				stability = 2
			}
		}
	}
	can_revoke = {
		always = no
	}
	on_revoked = {
		custom_tooltip = artificer_points_hover_over_me_tt
	}
	on_granted = {
		custom_tooltip = artificer_points_hover_over_me_tt
		if = {
			limit = {
				has_artificers_organization_privilege = yes
				NOT = { has_estate_privilege = estate_artificers_organization_independent_unions }
			}
			if = {
				limit = {
					estate_loyalty = {
						estate = estate_artificers
						loyalty = 60
					}
				}
				add_dip_power = -100
				add_stability = -1
			}
			else = {
				add_stability = -2
				add_dip_power = -200
			}
			custom_tooltip = estate_artificers_organization_cost_tooltip
			custom_tooltip = estate_artificers_organization_revoke_tooltip
			hidden_effect = {
				if = {
					limit = { has_estate_privilege = estate_artificers_organization_international_gommo }
					remove_estate_privilege = estate_artificers_organization_international_gommo
				}
				if = {
					limit = { has_estate_privilege = estate_artificers_organization_state }
					remove_estate_privilege = estate_artificers_organization_state
				}
				if = {
					limit = { has_estate_privilege = estate_artificers_organization_ravelian_control }
					remove_estate_privilege = estate_artificers_organization_ravelian_control
				}
			}
		}
		#hidden_effect = {
		#	add_country_modifier = {
		#		name = rajput_to_artificer
		#		duration = -1
		#		hidden = yes
		#	}
		#}
	}
	mechanics = {
        enables_rajput_regiments
    }
	penalties = {
	}
	benefits = {
		production_efficiency = 0.05
		special_unit_forcelimit = 0.05
	}
	ai_will_do = {
		factor = 0
	}
}

estate_artificers_organization_ravelian_control = {
	icon = privilege_promote_maratha_nobility
	max_absolutism = -5
	loyalty = -0.05
	influence = 0.1
	is_valid = {
		religion = ravelian
	}
	can_select = {
		if = {
			limit = { has_artificers_organization_privilege = yes }
			
			NOT = {
				estate_influence = {
					estate = estate_artificers
					influence = 25
				}
			}
			estate_loyalty = {
				estate = estate_artificers
				loyalty = 30
			}
			
			if = {
				limit = {
					estate_loyalty = {
						estate = estate_artificers
						loyalty = 60
					}
				}
				dip_power = 100
				stability = 1
			}
			else = {
				dip_power = 200
				stability = 2
			}
		}
	}
	can_revoke = {
		always = no
	}
	on_revoked = {
		custom_tooltip = artificer_points_hover_over_me_tt
	}
	on_granted = {
		custom_tooltip = artificer_points_hover_over_me_tt
		if = {
			limit = {
				has_artificers_organization_privilege = yes
				NOT = { has_estate_privilege = estate_artificers_organization_ravelian_control }
			}
			if = {
				limit = {
					estate_loyalty = {
						estate = estate_artificers
						loyalty = 60
					}
				}
				add_dip_power = -100
				add_stability = -1
			}
			else = {
				add_stability = -2
				add_dip_power = -200
			}
			custom_tooltip = estate_artificers_organization_cost_tooltip
			custom_tooltip = estate_artificers_organization_revoke_tooltip
			hidden_effect = {
				if = {
					limit = { has_estate_privilege = estate_artificers_organization_international_gommo }
					remove_estate_privilege = estate_artificers_organization_international_gommo
				}
				if = {
					limit = { has_estate_privilege = estate_artificers_organization_state }
					remove_estate_privilege = estate_artificers_organization_state
				}
				if = {
					limit = { has_estate_privilege = estate_artificers_organization_independent_unions }
					remove_estate_privilege = estate_artificers_organization_independent_unions
				}
			}
		}
		#hidden_effect = {
		#	add_country_modifier = {
		#		name = rajput_to_artificer
		#		duration = -1
		#		hidden = yes
		#	}
		#}
	}
	on_invalid = {
		custom_tooltip = estate_artificers_ravelian_control_invalid_tooltip
		hidden_effect = {
			if = {
				limit = { NOT = { has_artificers_organization_privilege = yes } }
				set_estate_privilege = estate_artificers_organization_state
			}
		}
	}
	mechanics = {
        enables_rajput_regiments
    }
	penalties = {
	}
	benefits = {
		global_missionary_strength = 0.02
		church_loyalty_modifier = 0.05
		church_influence_modifier = 0.05
		
		papal_influence = 0.5
		special_unit_forcelimit = 0.1
	}
	ai_will_do = {
		factor = 5
	}
}

#estate_artificers_siegecraft = {
#	icon = privilege_comission_merchant_ships_for_war
#	max_absolutism = -5
#	influence = 0
#	can_select = {
#		artifice_has_points_for_basic = yes
#	}
#	on_granted = {
#		artifice_granted_basic = yes
#		#update_artifice_points = yes #is included in the above effect
#	}
#	on_revoked = {
#		artifice_remove_basic = yes
#		#update_artifice_points = yes #is included in the above effect
#	}
#	penalties = {
#	}
#	benefits = {
#		siege_ability = 0.1
#		defensiveness = 0.1
#	}
#	#cooldown_years = 10 #ai can crash the game when using privileges with cooldowns
#	ai_will_do = {
#		factor = 10
#		modifier = {
#			factor = 0.8
#			is_absolutism_active = yes
#		}
#	}
#}
#
#estate_artificers_loyalty_privilege = {
#	icon = privilege_royal_authority
#	max_absolutism = -10
#	loyalty = 0.1
#	influence = 0
#	can_select = {
#		artifice_has_points_for_basic = yes
#	}
#	on_granted = {
#		artifice_granted_basic = yes
#		#update_artifice_points = yes #is included in the above effect
#	}
#	on_revoked = {
#		artifice_remove_basic = yes
#		#update_artifice_points = yes #is included in the above effect
#	}
#	penalties = {
#	}
#	benefits = {
#	}
#	ai_will_do = {
#		factor = 10
#		modifier = {
#			factor = 0
#			is_absolutism_active = yes
#		}
#	}
#}
#
#estate_artificers_monopoly_of_precursor_relics = {
#	icon = privilege_monopoly_of_goods_precursor_relics
#	max_absolutism = -10
#	loyalty = 0.1
#	is_valid = {
#		has_dlc = "Emperor"
#		any_owned_province = {
#			trade_goods = precursor_relics
#		}
#	}
#	can_select = {
#		custom_trigger_tooltip = {
#			tooltip = unavailable_during_revolution_disaster
#			NOT = { has_disaster = revolution }
#			NOT = {
#				has_disaster_progress = {
#					disaster = revolution
#					value = 1
#				}
#			}
#			# NOT = { has_disaster = french_revolution }
#			# NOT = {
#				# has_disaster_progress = {
#					# disaster = french_revolution
#					# value = 1
#				# }
#			# }
#		}
#	}
#	on_granted = {
#		add_mercantilism = 1
#		add_years_of_owned_provinces_production_income = {
#			years = 8
#			trigger = {
#				trade_goods = precursor_relics
#			}
#			custom_tooltip = MONOPOLY_INCOME_PRECURSOR_RELICS_DESC
#		}
#		custom_tooltip = estate_artificers_monopoly_of_precursor_relics_effect_tooltip
#		hidden_effect = {
#			every_owned_province = {
#				limit = {
#					trade_goods = precursor_relics
#				}
#				add_province_modifier = {
#					name = estate_artificers_monopoly_of_precursor_relics_mod
#					duration = -1
#				}
#			}
#		}
#	}
#	on_revoked = {
#		custom_tooltip = estate_artificers_monopoly_of_precursor_relics_revoke_tooltip
#		hidden_effect = {
#			every_owned_province = {
#				limit = {
#					has_province_modifier = estate_artificers_monopoly_of_precursor_relics_mod
#				}
#				remove_province_modifier = estate_artificers_monopoly_of_precursor_relics_mod
#			}
#		}
#	}
#	on_invalid = {
#		custom_tooltip = estate_artificers_monopoly_of_precursor_relics_revoke_tooltip
#		hidden_effect = {
#			every_owned_province = {
#				limit = {
#					has_province_modifier = estate_artificers_monopoly_of_precursor_relics_mod
#				}
#				remove_province_modifier = estate_artificers_monopoly_of_precursor_relics_mod
#			}
#		}
#	}
#	penalties = {
#	}
#	benefits = {
#	}
#	cooldown_years = 10
#	on_cooldown_expires = {
#		country_event = { id = monopoly_privileges.14 }
#	}
#	ai_will_do = { #having the AI use these could lead to an unstoppable downwards spiral if it can't work out how to get rid of them
#		factor = 0
#	}
#}

#Monstrous Tribes
estate_monstrous_tribes_land_rights = {
	icon = privilege_grant_autonomy
	land_share = 5
	max_absolutism = -5
	loyalty = 0.05
	influence = 0.05
	can_select = {
	}
	on_granted = {
	}
	penalties = {
	}
	benefits = {
		governing_capacity = 100
	}
	ai_will_do = {
		factor = 5
		modifier = {
			factor = 1.4
			num_of_territories = 5
		}
		modifier = {
			factor = 1.5
			num_of_territories = 10
		}
		modifier = {
			factor = 1.5
			num_of_territories = 15
		}
		modifier = {
			factor = 0
			OR = {
				NOT = { crown_land_share = 25 }
				estate_influence = {
					estate = estate_monstrous_tribes
					influence = 75
				}
			}
			NOT = { has_estate_privilege = estate_monstrous_tribes_land_rights }
		}
		modifier = {
			factor = 0
			NOT = { num_of_territories = 1 }
		}
		modifier = {
			factor = 0.8
			OR = {
				NOT = { crown_land_share = 40 }
				AND = {
					is_absolutism_active = yes
					NOT = { crown_land_share = 60 }
				}
			}
			NOT = { has_estate_privilege = estate_monstrous_tribes_land_rights }
		}
		modifier = {
			factor = 0.8
			OR = {
				NOT = { crown_land_share = 30 }
				AND = {
					is_absolutism_active = yes
					NOT = { crown_land_share = 50 }
				}
			}
			NOT = { has_estate_privilege = estate_monstrous_tribes_land_rights }
		}
		modifier = {
			factor = 0.8
			is_absolutism_active = yes
		}
	}
}

estate_monstrous_tribes_share_of_the_spoils = {
	icon = privilege_supply_arms
	max_absolutism = -5
	loyalty = 0.05
	penalties = {
		available_province_loot = -0.1
	}
	benefits = {
	}
	ai_will_do = {
		factor = 0
	}
}

estate_monstrous_tribes_chieftains_autonomy = {
	icon = privilege_grant_autonomy
	max_absolutism = -10
	loyalty = 0.1
	influence = 0.1
	penalties = {
	}
	benefits = {
	}
	ai_will_do = {
		factor = 10
		modifier = {
			factor = 0
			is_absolutism_active = yes
		}
	}
}

estate_monstrous_tribes_guaranteed_leadgership_in_host = {
	icon = privilege_conscript_cossack_elite
	max_absolutism = -5
	influence = 0.05
	can_select = {
		army_tradition = 30
	}
	on_granted = {
		add_army_tradition = -15
	}
	penalties = {
	}
	benefits = {
		general_cost = -0.25
		army_tradition_decay = -0.005
	}
	ai_will_do = {
		factor = 0
	}
}

estate_monstrous_tribes_tribal_host = {
	icon = privilege_raise_host
	max_absolutism = -5
	loyalty = -0.05
	influence = 0.1
	benefits = {
		global_manpower_modifier = 0.2
	}
	ai_will_do = {
		factor = 10
		modifier = {
			factor = 0.5
			is_absolutism_active = yes
		}
	}
}



estate_raj_ministries_delegate_territorial_management = {
	icon = privilege_promote_maratha_nobility
	max_absolutism = -10
	influence = 0.1
	loyalty = 0.05
	land_share = 5
	benefits = {
		development_cost = -0.05
	}
	modifier_by_land_ownership = {
		state_maintenance_modifier = -0.5
		vassal_income = 0.5
	}
	mechanics = {
		exempt_from_seize_land
	}
	ai_will_do = {
		factor = 0
	}
}

estate_raj_ministries_extend_education_grants = {
	icon = privilege_patronize_jain_families
	max_absolutism = -5
	influence = 0.05
	loyalty = 0.05
	benefits = {
		advisor_cost = -0.1
	}
	penalties = {
		global_tax_modifier = -0.1
	}
	ai_will_do = {
		factor = 0
	}
}

estate_raj_ministries_land_rights = {
	icon = privilege_grant_autonomy
	land_share = 5
	max_absolutism = -5
	loyalty = 0.05
	influence = 0.05
	can_select = {
	}
	on_granted = {
	}
	penalties = {
	}
	benefits = {
		governing_capacity = 100
	}
	ai_will_do = {
		factor = 5
		modifier = {
			factor = 1.4
			num_of_territories = 5
		}
		modifier = {
			factor = 1.5
			num_of_territories = 10
		}
		modifier = {
			factor = 1.5
			num_of_territories = 15
		}
		modifier = {
			factor = 0
			OR = {
				NOT = { crown_land_share = 25 }
				estate_influence = {
					estate = estate_raj_ministries
					influence = 75
				}
			}
			NOT = { has_estate_privilege = estate_raj_ministries_land_rights }
		}
		modifier = {
			factor = 0
			NOT = { num_of_territories = 1 }
		}
		modifier = {
			factor = 0.8
			OR = {
				NOT = { crown_land_share = 40 }
				AND = {
					is_absolutism_active = yes
					NOT = { crown_land_share = 60 }
				}
			}
			NOT = { has_estate_privilege = estate_raj_ministries_land_rights }
		}
		modifier = {
			factor = 0.8
			OR = {
				NOT = { crown_land_share = 30 }
				AND = {
					is_absolutism_active = yes
					NOT = { crown_land_share = 50 }
				}
			}
			NOT = { has_estate_privilege = estate_raj_ministries_land_rights }
		}
		modifier = {
			factor = 0.8
			is_absolutism_active = yes
		}
	}
}

estate_raj_ministries_strict_caste_regulation = {
	icon = privilege_seek_support_of_clergy
	max_absolutism = -5
	loyalty = 0.1
	influence = 0.05
	penalties = {
		advisor_cost = 0.05
		advisor_pool = -1
	}
	benefits = {
		same_culture_advisor_cost = -0.2
	}
	on_revoked = {
		#Add unrest
	} 
	ai_will_do = {
		factor = 10
		modifier = {
			factor = 0
			is_absolutism_active = yes
		}
	}
}

estate_raj_ministries_ministerial_tithes = {
	icon = privilege_build_jain_temple
	max_absolutism = -5
	loyalty = 0.05
	influence = 0.05
	penalties = {
		global_tax_modifier = -0.1
	}
	modifier_by_land_ownership = {
		build_cost = -0.5
	}
	ai_will_do = {
		factor = 0
	}
}

estate_raj_ministries_ceremonial_ruler_act = {
	icon = privilege_royal_authority
	max_absolutism = -40
	loyalty = 0.05
	influence = 0.1
	land_share = 10
	benefits = {
		advisor_cost = -0.33
	}
	penalties = {
		all_power_cost = 0.05
	}
	ai_will_do = {
		factor = 0
	}
}

estate_raj_ministries_establish_the_ministry_of_war = {
	icon = privilege_promote_purbias
	max_absolutism = -5
	influence = 0.1
	loyalty = 0.05
	penalties = {
		army_tradition_decay = 0.01
	}
	benefits = {
		free_mil_policy = 1
		possible_mil_policy = 1
	}
	ai_will_do = {
		factor = 1
		modifier = {
			factor = 0
			is_absolutism_active = yes
		}
	}
}

estate_raj_ministries_control_over_monetary_policy = {
	icon = privilege_give_money
	max_absolutism = -10
	influence = 0.05
	loyalty = 0.05
	is_valid = {
		has_dlc = "Emperor"
	}
	penalties = {
		all_power_cost = 0.05
	}
	benefits = {
		inflation_reduction = 0.15
		interest = -0.5
		production_efficiency = 0.05
	}
	ai_will_do = {
		factor = 1
		modifier = {
			factor = 10
			OR = {
				inflation = 15
				num_of_loans = 15
			}
		}
		modifier = {
			factor = 0
			is_absolutism_active = yes
		}
	}
}


estate_raj_ministries_raj_cohesion = {
	icon = privilege_raj_cohesion
	max_absolutism = -5
	is_valid = {
		
	}
	can_revoke = {
		always = no
	}
	on_granted = {
		custom_tooltip = raj_cohesion_explanation_tt
	}
	on_revoked = {
		custom_tooltip = raj_cohesion_explanation_tt
	}
	conditional_modifier = {
		trigger = {
			4411 = {
				check_variable = {
					which = raj_cohesion
					value = 80
				}
			}
		}
		modifier = {
			development_cost = -0.05
			global_unrest = -1
			raj_ministries_influence_modifier = 0.10
		}
	}
	conditional_modifier = {
		trigger = {
			4411 = {
				check_variable = {
					which = raj_cohesion
					value = 60
				}
				NOT = {
					check_variable = {
						which = raj_cohesion
						value = 80
					}
				}
			}
		}
		modifier = {
			
		}
	}
	conditional_modifier = {
		trigger = {
			4411 = {
				check_variable = {
					which = raj_cohesion
					value = 40
				}
				NOT = {
					check_variable = {
						which = raj_cohesion
						value = 60
					}
				}
			}
		}
		modifier = {
			development_cost = 0.05
			reduced_liberty_desire = -5
			global_unrest = 1
			raj_ministries_influence_modifier = -0.05
		}
		is_bad = yes
	}
	conditional_modifier = {
		trigger = {
			4411 = {
				check_variable = {
					which = raj_cohesion
					value = 20
				}
				NOT = {
					check_variable = {
						which = raj_cohesion
						value = 40
					}
				}
			}
		}
		modifier = {
			development_cost = 0.10
			reduced_liberty_desire = -10
			global_unrest = 2
			raj_ministries_influence_modifier = -0.10
		}
		is_bad = yes
	}
	conditional_modifier = {
		trigger = {
			4411 = {
				NOT = {
					check_variable = {
						which = raj_cohesion
						value = 20
					}
				}
			}
		}
		modifier = {
			development_cost = 0.20
			reduced_liberty_desire = -15
			global_unrest = 4
			raj_ministries_influence_modifier = -0.15
		}
		is_bad = yes
	}
	ai_will_do = {
		factor = 0
	}
}

