
golden_highway_bulwar_proper = {
	565 567 572 561 584 596 598 600 601 602 608 613 628
}
golden_highway_far_bulwar = {
	625 626 627 631 634 639 640 641 642 643 647 558 585
}
golden_highway_far_salahad = {
	2900 2901 2902 2905 2908 2910 2913
}
golden_highway_rahen_coast = {
	4361 4363 4368 4379 4412 4411 4410 4381 4404 4391 4392 4418 4399 4420 4406 
}
golden_highway_dhujat = {
	4408 4409 4492 4496 4493 4497 4499
}
golden_highway_xianjie = {
	4470 4489 4500 4620 4511 4611 4938 4613 4559 4617 4618 4641 4817 4819
}
golden_highway_upper_yanshen = {
	4826 4952 4842 4845 4850 4846 4853 4854 4859 4861
}
golden_highway_lower_yanshen = {
	4873 4867 4868 4869 4870 4871
}

irrigation_dwarovar = {
	4125 4129 4123 4142 4131 4143 4158 4151 4152 4166 4164 4145
}

west_dolindha = {
	1823 2842 1824 1818 1820 1819 2809 1187 1188 1186 2813 1167 2808 2812 1168 1169 1170 1182 1755 2838
}

east_dolindha = {
	1166 2811 2837 1165 2862 2839 1172 2814 1171 1180 2742 2840 2488
}

west_ynn_bank = {
	1187 1818 1819 1820 1821 1822 1823 1824 1825 1826 1827 1828 1829 1830 1831 1832 1833 1834 1835 1837 1838 1839 1840 1841 1843 1844 1858 1878 2809 2842 2857
}

east_ynn_bank = {
	2757 1133 1145 1144 1135 1877 1134 1874 2860 1137 1138 2816 1142 1136 1149 1148 1155 1139 1140 1141 2841 2810 2861 2859 1143 2858
}

#adbrabohvi_dam = {
#	1839 1838 1837 1822 1852 1853 2729 1133 1144 1827 1826 1825 1840 1854 1855 1856 1860 1859 1857 1858 1841 1828 2857 1829 1831 1137 1138 2816 1142 1136 2861 2859 1143 2858 1147 1135 1877 1134 1874 2860 1830 1832 1833 1834
#}

#vels_bacar_dam = {
#	1146 1186 1149 1148 1155 2783 1150 2817 1154 1151 2606 2615 2844 1157 1156 2818 2784 1161 1158 1159 2815 2807 1160 2781 1139 1140 1141 2841 2810 1821 1878 2811 1166 2837 1165 2809 1819 1820 1824 2811 1166 2813 1167 2812 1187
#}

#bosancovac_dam = {
#	2839 1163 1164 2819 1162 1176 1171 2814 2862 2840 2488 1172 1180 2742
#}

#mocbarja_dam = {
#	2838 1188 1170 1182 1755 1168 1169 2808 1823 2842 1818 1851 1850 1848 1849 1847 1846 1800 1817 1816 1815 2843
#}

deepwoods_cluster_1 = {
	3005 3004 3006 3007 3008
}

deepwoods_cluster_2 = {
	3018 3019 3020 3021 3022
}

deepwoods_cluster_3 = {
	3013 3014 3015 3016 3017
}

deepwoods_cluster_4 = {
	3009 3010 3011 3012 3067
}

deepwoods_cluster_5 = {
	3027 3028 3029 3030 3031
}

deepwoods_cluster_6 = {
	3023 3024 3025 3026
}

deepwoods_cluster_7 = {
	3032 3033 3034 3035 3036 3037 3038
}

deepwoods_cluster_8 = {
	3039 3040 3041 3042
}

deepwoods_cluster_9 = {
	3043 3044 3045 3046 3047
}

deepwoods_outward_gladeway = {
	3071 3048 3054 3068 3065 3064 3069 3070
}

harimraj_core_lands = {
	4390 4418 4419 4417 4392 4393 4391 4421 4422 4425 4424 4423 4416 4404 4394 4405 4410 4413 4438
	4415 4414 4412 4411 4385 4379 4378 4368 4426 4428 4429 4432 4431 4430 4427 4433 4434 4435 4436 4441
	4399 4398 4406 4407 4408 4490 4373 4401 4381
}

east_alecand = {
	2756 2726 2758 2759 2727 2728 2761 2730 2762 2763 2731 2765 2764 2732 2767 2768 2733 2734 2735 2725 2724 2770
	2769 2736 2771 2737 2738 2775 2776 2777 2773 2772 2739 2745 2778 2743 2744
}

alen_river_cities = {
	216 219 337 220 339 221 222 223 225 226
}

western_alenic_reach = {
	721 706 722 704 705 723 752 731 702 703 724 700 699 696 695 694 697 698
}

lupulan_rainforest_interior = {
	4719 4721 4725 4726 4723 4724 4766 4735 4964 4733 4732 4772 4730 4956 4957 4953 4959 4741 4965 4736 4765 4710 4734 4737 4713 4767 4712 4768 4708 4769
}

porcelain_cities = {	#added Nundujisbid, which can become a porcelain city later and starts with the trade good
	4470 4500 4600 4493 4396 4409
}
suran_river = {
	565 567 572 561 584 596 598 600 601 604 607 612 625 627 631 634 639 640 641 642 643 
}


seiche_1 = {
	5305 5229 5297 5296 5295 5289 5306
}

seiche_2 = {
	5278 5277 5276 5273 5271 5270
}

seiche_3 = {
	5259 5258 5257 5256 5252
}

seiche_4 = {
	5237 5236 5235 5234 5233 5229
}

triunic_crescent = {
	5224 5223 5195 5191 5190 5189 5188 5187 5180 5167 5166 5164 5163 5160 5158 5156 5151 5149 5146 5145 5141 5140 5135 5138 5137 5134 5130 5129 5126 5125 5123 5285
	5284 5283 5282 5304 5281 5280 5302 5300 5305 5229 5297 5296 5295 5289 5306 5286 5278 5277 5276 5273 5271 5270 5269 5267 5265 5264 5263 5262 5261 5259 5258 5257 
	5256 5252 5251 5249 5247 5246 5242 5241 5238 5236 5237 5236 5235 5234 5233 5229 
	5274 5275 5291 5292 5293 5294 5301 5279 5272 5268 5254 5250 5248 5247 5246 5245 5244 5121 5119 5117 5115 5116 5018 5011 5010 5008 5320 5321 5323 5108 
}

lake_shore = {
	5110 5111 5113 5112
}

wild_clan_lands = {
	5024 5019 5021 5020 5022 5005
}

triunic_road = {
	5203 5199 5198 5197 5194 5195 5183 5177 5174 5173 5171 5170 5188 5187 5186 5185 5192 5169 5166 5164 5162 5159 5157 5155 5151 5150 5148 5089 5085 5146
	5144 5142 5139 5132 5133 5130 5128 5071 5074 5073 5092 5093 5094 5096 5099 5127 5067 5113 5112 5123 5122 5120 5063 5059 5058 5062 5061 5015 5013 5004 5303
	5088 5103 5104 5105 4117
}

luna_river_basin = {
	898 299 298 296 327 906 329 587 109 394 282 284 295 287 25 45 50 569 285 331
}