#100 - Friesland | 

owner = A09
controller = A09
add_core = A09
culture = sorncosti
religion = regent_court
hre = no
base_tax = 3
base_production = 4
trade_goods = iron
base_manpower = 2
capital = ""
is_city = yes







