#290 - Poltava

owner = A33
controller = A33
add_core = A33
culture = vernman
religion = regent_court

hre = yes

base_tax = 2
base_production = 3
base_manpower = 3

trade_goods = wool

capital = ""

is_city = yes







