#326 - Ankara

owner = A75
controller = A75
add_core = A75
culture = arannese
religion = regent_court

hre = yes

base_tax = 3
base_production = 4
base_manpower = 2

trade_goods = salt

capital = ""

is_city = yes









add_permanent_province_modifier = {
	name = half_elven_minority_coexisting_small
	duration = -1
}