#Estland, incl. Reval, Hapsal, Weissenstein, Wesenberg and Pernau.

owner = A47
controller = A47
add_core = A47
culture = tefori
religion = regent_court

hre = no

base_tax = 3
base_production = 4
base_manpower = 3

trade_goods = fish

capital = ""

is_city = yes











