#508 - Landsend

owner = F12
controller = F12
add_core = F12
add_core = F16
culture = ourdi
religion = regent_court


base_tax = 1
base_production = 3
base_manpower = 2

trade_goods = fur
capital = ""









