# No previous file for Roh
owner = F05
controller = F05
add_core = F05
add_core = F32
culture = sun_elf
religion = bulwari_sun_cult

hre = no

base_tax = 2
base_production = 3
base_manpower = 2

trade_goods = fish

capital = ""

is_city = yes











add_permanent_province_modifier = {
	name = human_minority_coexisting_small
	duration = -1
}
