# No previous file for Khorat
owner = F36
controller = F36
add_core = F36
culture = zanite
religion = bulwari_sun_cult

hre = no

base_tax = 3
base_production = 2
base_manpower = 2

trade_goods = cotton

capital = ""

is_city = yes












add_permanent_province_modifier = {
	name = elven_minority_integrated_small
	duration = -1
}