# No previous file for Palembang
owner = F25
controller = F25
add_core = F25
culture = sun_elf
religion = bulwari_sun_cult

hre = no

base_tax = 3
base_production = 3
base_manpower = 3

trade_goods = wine
center_of_trade = 1

capital = ""

is_city = yes











add_permanent_province_modifier = {
	name = human_minority_coexisting_large
	duration = -1
}

