# No previous file for Skaldol
owner = Z09
controller = Z09
add_core = Z09
culture = olavish
religion = skaldhyrric_faith

hre = no

base_tax = 3
base_production = 4
base_manpower = 2

trade_goods = wine

capital = ""

is_city = yes






