# No previous file for Baldersby
owner = Z15
controller = Z15
add_core = Z15
add_core = Z12
culture = olavish
religion = skaldhyrric_faith

hre = no

base_tax = 2
base_production = 2
base_manpower = 1

trade_goods = naval_supplies

capital = ""

is_city = yes






