country_decisions = {
	vampire_points_test = {	
		potential = {
			ruler_has_facade = yes
		}
		
		allow = {
			always = no
			check_variable = {
				which = suspicionPoints
				value = 1000
			}
		}
	
		effect = {
		}
		
		ai_will_do = {
			factor = 0
		}
	}
	
	current_suspicion_level = {
		potential = {
			ruler_has_facade = yes #Rename this to a more specific requirement, currently checks for lich, vampire and Homonculus
		}
		
		major = yes
		
		allow = {
			always = no
		}
		
		effect = {
			custom_tooltip = current_suspicion_level_tooltip
		}
	}
}
