country_decisions = {

	halfling_nation = {
		major = yes
		potential = {
			culture_group = halfling
			normal_or_historical_nations = yes
			was_never_end_game_tag_trigger = yes
			NOT = { exists = A97 } #Small Country doesn't exist
			capital_scope = { continent = europe }
		}
		allow = {
			#adm_tech = 10
			is_free_or_tributary_trigger = yes
			is_nomad = no
			is_at_war = no
			#num_of_cities = 5
			num_of_owned_provinces_with = {
				value = 5
				region = small_country_region
				OR = {
					culture_group = halfling
				}
			}
		}
		effect = {
			change_tag = A97
			hidden_effect = { restore_country_name = yes }
			remove_non_electors_emperors_from_empire_effect = yes
			swap_non_generic_missions = yes
			if = {
				limit = {
					NOT = { government_rank = 2 }
				}
				set_government_rank = 2
			}
			small_country_region = {
				limit = {
					NOT = { owned_by = ROOT }
				}
				add_permanent_claim = A97
				
			}
			if = {
				limit = {
					has_custom_ideas = no
				}
				country_event = { id = ideagroups.1 } #Swap Ideas
			}
			add_prestige = 25
			add_country_modifier = {
				name = "centralization_modifier"
				duration = 7300
			}
			set_country_flag = formed_small_country_flag
		}
		ai_will_do = {
			factor = 1
		}
		ai_importance = 400
	}
}