namespace = allclan

#great kinstrife events

country_event = { #start
	id = allclan.800
	title = allclan.800.t #something went wrong
	desc = allclan.800.d
	picture = TRADEGOODS_eventPicture
	
	major = no

	trigger = {
		#has_reform = nezkaru_council_reform
		always = yes
	}

	immediate = {
		set_global_flag = allclan_civil_war

		#set_variable = {
		#	which = MonthsSinceKinstrife
		#	value = 0
		#}
		set_country_flag = allclan_kinstrife_started

		great_kinstrife_setup = yes
	}

	is_triggered_only = yes
	
	option = {
		name = allclan.800.a #how could this have possibly happened

		add_country_modifier = {
			name = allclan_split
			duration = -1
		}
		swap_non_generic_missions = yes

		add_country_modifier = {
			name = allclan_military_disarray
			duration = -1
		}
		add_country_modifier = {
			name = allclan_looting_bureaucrats
			duration = -1
		}
		add_country_modifier = {
			name = allclan_economic_crisis
			duration = -1
		}
		add_stability = -6
		capital_scope = {
			spawn_rebels = {
				type = particularist_rebels
				size = 400
				win = yes
			}
			spawn_rebels = {
				type = particularist_rebels
				size = 400
				win = no
			}
			spawn_rebels = {
				type = particularist_rebels
				size = 400
				win = no
			}
			spawn_rebels = {
				type = particularist_rebels
				size = 400
				win = no
			}
		}
		every_owned_province = {
			limit = {
				any_core_country = {
					culture_group = goblin
					NOT = { tag = I98 }
				}
			}
			add_unrest = 5
			random = {
				chance = 10
				spawn_rebels = {
					type = particularist_rebels
					size = 100
					win = no
				}
			}
			if = {
				limit = {
					check_variable = {
						which = AllclanTensionVariable
						value = 500
					}
				}
				add_nationalism = 60
				random = {
					chance = 25
					spawn_rebels = {
						type = particularist_rebels
						size = 100
						win = no
					}
				}
			}
			else_if = {
				limit = {
					check_variable = {
						which = AllclanTensionVariable
						value = 400
					}
				}
				add_nationalism = 40
				random = {
					chance = 20
					spawn_rebels = {
						type = particularist_rebels
						size = 100
						win = no
					}
				}
			}
			else_if = {
				limit = {
					check_variable = {
						which = AllclanTensionVariable
						value = 300
					}
				}
				add_nationalism = 30
				random = {
					chance = 10
					spawn_rebels = {
						type = particularist_rebels
						size = 100
						win = no
					}
				}
			}
			else_if = {
				limit = {
					check_variable = {
						which = AllclanTensionVariable
						value = 200
					}
				}
				add_nationalism = 20
				random = {
					chance = 5
					spawn_rebels = {
						type = particularist_rebels
						size = 100
						win = no
					}
				}
			}
			else_if = {
				limit = {
					check_variable = {
						which = AllclanTensionVariable
						value = 100
					}
				}
				add_nationalism = 10
			}
			else_if = {
				limit = {
					check_variable = {
						which = AllclanTensionVariable
						value = 0
					}
				}
				add_nationalism = 10
			}
		}
		ai_chance = { factor = 25 }
	}
}

country_event = { #end
	id = allclan.899
	title = allclan.899.t #we fixed it
	desc = allclan.899.d
	picture = TRADEGOODS_eventPicture
	
	major = no

	trigger = {
		#has_reform = nezkaru_council_reform
		always = yes
	}

	is_triggered_only = yes
	
	option = {
		name = allclan.899.a #all it needed was some tape

		add_country_modifier = {
			name = allclan_the_united_allclan
			duration = -1
		}
		clr_country_flag = allclan_emergency_powers
		set_country_flag = ended_the_great_kinstrife
		ai_chance = { factor = 25 }
	}
}

country_event = { #fixed the military
	id = allclan.898
	title = allclan.898.t
	desc = allclan.898.d
	picture = TRADEGOODS_eventPicture
	
	major = no

	trigger = {
		#has_reform = nezkaru_council_reform
		always = yes
	}

	is_triggered_only = yes
	
	option = {
		name = allclan.898.a

		remove_country_modifier = allclan_military_disarray
		clr_country_flag = allclan_solving_other_issue

		ai_chance = { factor = 25 }
	}
}

country_event = { #quelled bureaus
	id = allclan.897
	title = allclan.898.t
	desc = allclan.898.d
	picture = TRADEGOODS_eventPicture
	
	major = no

	trigger = {
		#has_reform = nezkaru_council_reform
		always = yes
	}

	is_triggered_only = yes
	
	option = {
		name = allclan.898.a

		remove_country_modifier = allclan_looting_bureaucrats
		clr_country_flag = allclan_solving_other_issue

		ai_chance = { factor = 25 }
	}
}

country_event = { #restored the economy
	id = allclan.896
	title = allclan.896.t
	desc = allclan.896.d
	picture = TRADEGOODS_eventPicture
	
	major = no

	trigger = {
		#has_reform = nezkaru_council_reform
		always = yes
	}

	is_triggered_only = yes
	
	option = {
		name = allclan.898.a

		remove_country_modifier = allclan_economic_crisis
		clr_country_flag = allclan_solving_other_issue

		ai_chance = { factor = 25 }
	}
}

country_event = {
	id = allclan.895
	title = allclan.895.t
	desc = allclan.895.d
	picture = TRADEGOODS_eventPicture
	
	major = no

	trigger = {
		#has_reform = nezkaru_council_reform
		I98 = {
			has_disaster = great_kinstrife
		}
		primary_culture = cave_goblin
		has_global_flag = allclan_civil_war #this might be redundant. But I aint removing it just in case
		NOT = {
			has_country_modifier = allclan_defeat_the_allclan
			tag = I98
			is_subject = yes
		}
	}

	immediate = {
		add_country_modifier = {
			name = allclan_defeat_the_allclan
			duration = -1
		}
		add_treasury = 100000
		country_event = {
			id = allclan.801
			days = 500
			random = 230
		}
		I98 = {
			country_event = {
				id = allclan.803
				days = 0
			}
		}
		every_owned_province = {
			disband_rebels = goblin_nationalist_rebels
		}
	}

	#is_triggered_only = yes
	mean_time_to_happen = {
		days = 1
	}
	
	option = {
		name = allclan.895.a

		add_adm_power = 100
		add_dip_power = 100
		add_mil_power = 100
		add_treasury = 100000
		add_manpower = 400
		add_prestige = 100
		change_government = republic
		ai_chance = { factor = 25 }
	}
}

country_event = { #reserved
	id = allclan.894
	title = allclan.898.t
	desc = allclan.898.d
	picture = TRADEGOODS_eventPicture
	
	major = no

	trigger = {
		#has_reform = nezkaru_council_reform
		always = yes
	}

	is_triggered_only = yes
	
	option = {
		name = allclan.898.a

		ai_chance = { factor = 25 }
	}
}

country_event = { #reserved
	id = allclan.893
	title = allclan.898.t
	desc = allclan.898.d
	picture = TRADEGOODS_eventPicture
	
	major = no

	trigger = {
		#has_reform = nezkaru_council_reform
		always = yes
	}

	is_triggered_only = yes
	
	option = {
		name = allclan.898.a

		ai_chance = { factor = 25 }
	}
}

country_event = { #reserved
	id = allclan.892
	title = allclan.898.t
	desc = allclan.898.d
	picture = TRADEGOODS_eventPicture
	
	major = no

	trigger = {
		#has_reform = nezkaru_council_reform
		always = yes
	}

	is_triggered_only = yes
	
	option = {
		name = allclan.898.a

		ai_chance = { factor = 25 }
	}
}

country_event = { #reserved
	id = allclan.891
	title = allclan.898.t
	desc = allclan.898.d
	picture = TRADEGOODS_eventPicture
	
	major = no

	trigger = {
		#has_reform = nezkaru_council_reform
		always = yes
	}

	is_triggered_only = yes
	
	option = {
		name = allclan.898.a

		ai_chance = { factor = 25 }
	}
}

country_event = { #reserved
	id = allclan.890
	title = allclan.898.t
	desc = allclan.898.d
	picture = TRADEGOODS_eventPicture
	
	major = no

	trigger = {
		#has_reform = nezkaru_council_reform
		always = yes
	}

	is_triggered_only = yes
	
	option = {
		name = allclan.898.a

		ai_chance = { factor = 25 }
	}
}


country_event = { #event for the AI to declare war
	id = allclan.801
	title = allclan.801.t #we fixed it
	desc = allclan.801.d
	picture = TRADEGOODS_eventPicture
	
	major = no

	trigger = {
		#has_reform = nezkaru_council_reform
		always = yes
	}

	is_triggered_only = yes
	#hidden = yes
	
	option = {
		name = allclan.801.a

		if = {
			limit = {
				NOT = {
					I98 = {
						any_enemy_country = {
							is_in_war = { casus_belli = cb_great_kinstrife }
						}
					}
				}
			}
			declare_war_with_cb = {
				who = I98 
				casus_belli = cb_great_kinstrife
			}
		}
		else = {
			I98 = {
				random_enemy_country = {
					limit = { is_in_war = { casus_belli = cb_great_kinstrife } }
					ROOT = {
						join_all_offensive_wars_of = PREV
						join_all_defensive_wars_of = PREV
					}
				}
			}
		}
		I98 = {
			country_event = {
				id = allclan.802
				days = 0
			}
		}
		ai_chance = { factor = 25 }
	}

	option = {
		name = allclan.801.b
		#for the player if they happen to tag switch
		ai_chance = { factor = 0 }
	}
}

country_event = { #event telling you the AI declared war
	id = allclan.802
	title = allclan.802.t #we fixed it
	desc = allclan.802.d
	picture = TRADEGOODS_eventPicture
	
	major = no

	trigger = {
		#has_reform = nezkaru_council_reform
		always = yes
	}

	is_triggered_only = yes
	
	option = {
		name = allclan.802.a #We will fight!

		if = {
			limit = {
				check_variable = {
					which = AllclanTensionVariable
					value = 500
				}
			}
			add_country_modifier = {
				name = allclan_great_kinstrife_fervor_2
				duration = 1460
			}
		}
		else_if = {
			limit = {
				check_variable = {
					which = AllclanTensionVariable
					value = 300
				}
			}
			add_country_modifier = {
				name = allclan_great_kinstrife_fervor_1
				duration = 1460
			}
		}
		else = {
			add_country_modifier = {
				name = allclan_great_kinstrife_fervor_0
				duration = 1460
			}
		}
		ai_chance = { factor = 25 }
	}
}

country_event = { #our newly released country is likely planning to attack us
	id = allclan.803
	title = allclan.803.t
	desc = allclan.803.d
	picture = TRADEGOODS_eventPicture
	
	major = no

	trigger = {
		#has_reform = nezkaru_council_reform
		always = yes
	}

	is_triggered_only = yes
	
	option = {
		name = allclan.802.a #We will fight!

		ai_chance = { factor = 25 }
	}
}

country_event = { #sieze emergency powers
	id = allclan.804
	title = allclan.804.t
	desc = allclan.804.d
	picture = TRADEGOODS_eventPicture
	
	major = no

	trigger = {
		#has_reform = nezkaru_council_reform
		always = yes
	}

	is_triggered_only = yes
	
	option = {
		name = allclan.804.a

		allclan_technocrat_boost_big = yes
		custom_tooltip = prevents_regular_elections_for_the_duration_of_the_crisis_tt
		remove_country_modifier = allclan_military_disarray

		ai_chance = { factor = 25 }
	}
		
	option = {
		name = allclan.804.b

		allclan_reformist_boost_big = yes
		custom_tooltip = prevents_regular_elections_for_the_duration_of_the_crisis_tt
		remove_country_modifier = allclan_looting_bureaucrats

		ai_chance = { factor = 25 }
	}
		
	option = {
		name = allclan.804.c

		allclan_cartel_boost_big = yes
		custom_tooltip = prevents_regular_elections_for_the_duration_of_the_crisis_tt
		remove_country_modifier = allclan_economic_crisis

		ai_chance = { factor = 25 }
	}
}

#orc uprising
country_event = { #orcs rise up and cut off the food supply
	id = allclan.805
	title = allclan.805.t
	desc = allclan.805.d
	picture = TRADEGOODS_eventPicture
	
	major = no

	trigger = {
		#has_reform = nezkaru_council_reform
		has_country_modifier = ghettoized_orcs
		#check_variable = {
		#	which = MonthsSinceKinstrife
		#	value = 48 # 4 years
		#}
		had_country_flag = {
			flag = allclan_kinstrife_started
			days = 730
		}
		serpents_vale_region = {
			has_orcish_majority_trigger = yes
		}
	}


	immediate = {
		add_stability = -1
		add_country_modifier = {
			name = allclan_orc_uprising_food_shortage
			duration = -1
		}
		serpents_vale_region = {
			limit = {
				owned_by = ROOT
				has_orcish_majority_trigger = yes
			}
			spawn_rebels = {
				type = allclan_orc_insurgents_rebels
				size = 300
				win = yes
			}
			spawn_rebels = {
				type = allclan_orc_insurgents_rebels
				size = 150
			}
			spawn_rebels = {
				type = allclan_orc_insurgents_rebels
				size = 150
			}
		}
	}

	is_triggered_only = yes
	fire_only_once = yes
	
	option = {
		name = allclan.805.a #oh no

		swap_non_generic_missions = yes

		every_owned_province = {
			add_nationalism = 5
		}
		ai_chance = { factor = 25 }
	}
}

country_event = { #reserved
	id = allclan.806
	title = allclan.803.t
	desc = allclan.803.d
	picture = TRADEGOODS_eventPicture
	
	major = no

	trigger = {
		#has_reform = nezkaru_council_reform
		always = yes
	}

	is_triggered_only = yes
	
	option = {
		name = allclan.802.a #We will fight!

		ai_chance = { factor = 25 }
	}
}

country_event = { #reserved
	id = allclan.807
	title = allclan.803.t
	desc = allclan.803.d
	picture = TRADEGOODS_eventPicture
	
	major = no

	trigger = {
		#has_reform = nezkaru_council_reform
		always = yes
	}

	is_triggered_only = yes
	
	option = {
		name = allclan.802.a #We will fight!

		ai_chance = { factor = 25 }
	}
}


#dwarf uprising

country_event = { #dwarf intifada
	id = allclan.811
	title = allclan.811.t
	desc = allclan.811.d
	picture = TRADEGOODS_eventPicture
	
	major = no

	trigger = {
		#has_reform = nezkaru_council_reform
		has_country_modifier = ghettoized_dwarves
		any_owned_province = {
			OR = {
				has_dwarven_majority_trigger = yes
				has_dwarven_minority_trigger = yes
			}
		}
	}

	immediate = {
		add_stability = -1
		every_owned_province = {
			limit = {
				OR = {
					has_dwarven_majority_trigger = yes
					has_dwarven_minority_trigger = yes
				}
			}
			add_unrest = 5
			add_devastation = 50
			add_province_modifier = {
				name = allclan_dwarven_uprising
				duration = -1
			}
		}
	}

	is_triggered_only = yes
	
	option = {
		name = allclan.802.a #We will fight!



		ai_chance = { factor = 25 }
	}
}

country_event = { #small uprising
	id = allclan.812
	title = allclan.812.t
	desc = allclan.812.d
	picture = TRADEGOODS_eventPicture
	
	major = no

	trigger = {
		#has_reform = nezkaru_council_reform
		any_owned_province = {
			OR = {
				has_dwarven_majority_trigger = yes
				has_dwarven_minority_trigger = yes
			}
		}
	}

	is_triggered_only = yes
	
	option = {
		name = allclan.812.a #We will fight!

		random_owned_province = {
			limit = {
				OR = {
					has_dwarven_majority_trigger = yes
					has_dwarven_minority_trigger = yes
				}
			}
			add_unrest = 5
			add_devastation = 100
			add_province_modifier = {
				name = allclan_dwarven_uprising
				duration = -1
			}
			spawn_rebels = {
				type = allclan_dwarf_insurgents_rebels
				size = 50
			}
		}
		ai_chance = { factor = 25 }
	}

	option = {
		name = allclan.812.b #tae the chance to quell the rebellion here

		trigger = {
			any_owned_province = {
				has_province_modifier = allclan_dwarven_uprising
			}
		}
		add_manpower = -15
		random_owned_province = {
			limit = {
				has_province_modifier = allclan_dwarven_uprising
			}
			add_unrest = 5
			add_devastation = 100
			random = {
				chance = 50

				remove_province_modifier = allclan_dwarven_uprising
			}
			spawn_rebels = {
				type = allclan_dwarf_insurgents_rebels
				size = 100
			}
		}
		ai_chance = { factor = 25 }
	}
}

country_event = { #big uprising
	id = allclan.813
	title = allclan.813.t
	desc = allclan.813.d
	picture = TRADEGOODS_eventPicture
	
	major = no

	trigger = {
		#has_reform = nezkaru_council_reform
		any_owned_province = {
			has_province_modifier = allclan_dwarven_uprising
		}
	}

	is_triggered_only = yes
	
	option = {
		name = allclan.812.a #We will fight!

		random_owned_province = {
			limit = {
				has_province_modifier = allclan_dwarven_uprising
			}
			add_unrest = 5
			add_devastation = 100
			spawn_rebels = {
				type = allclan_dwarf_insurgents_rebels
				size = 100
			}
			random = {
				chance = 50

				spawn_rebels = {
					type = allclan_dwarf_insurgents_rebels
					size = 50
				}
			}
			random = {
				chance = 50

				spawn_rebels = {
					type = allclan_dwarf_insurgents_rebels
					size = 50
				}
			}
			random = {
				chance = 50

				spawn_rebels = {
					type = allclan_dwarf_insurgents_rebels
					size = 50
				}
			}
		}
		ai_chance = { factor = 25 }
	}
	option = {
		name = allclan.812.b #tae the chance to quell the rebellion here
	
		trigger = {
			any_owned_province = {
					has_province_modifier = allclan_dwarven_uprising
			}
		}
		add_manpower = -15
		random_owned_province = {
			limit = {
				has_province_modifier = allclan_dwarven_uprising
			}
			add_unrest = 5
			add_devastation = 100
			random = {
				chance = 75
	
				remove_province_modifier = allclan_dwarven_uprising
			}
			spawn_rebels = {
				type = allclan_dwarf_insurgents_rebels
				size = 100
			}
			spawn_rebels = {
				type = allclan_dwarf_insurgents_rebels
				size = 100
			}
			spawn_rebels = {
				type = allclan_dwarf_insurgents_rebels
				size = 100
			}
		}
		ai_chance = { factor = 25 }
	}
}

country_event = { #rebels quelled
	id = allclan.814
	title = allclan.814.t
	desc = allclan.814.d
	picture = TRADEGOODS_eventPicture
	
	major = no

	trigger = {
		#has_reform = nezkaru_council_reform
		any_owned_province = {
			has_province_modifier = allclan_dwarven_uprising
			unrest = 0
		}
	}

	is_triggered_only = yes
	
	option = {
		name = allclan.814.a

		random_owned_province = {
			limit = {
				has_province_modifier = allclan_dwarven_uprising
			}
			remove_province_modifier = allclan_dwarven_uprising
		}
		ai_chance = { factor = 25 }
	}
}

province_event = { #rebels flushed out
	id = allclan.815
	title = allclan.814.t
	desc = allclan.814.d
	picture = TRADEGOODS_eventPicture
	
	major = no

	trigger = {
		has_province_modifier = allclan_dwarven_uprising
	}

	is_triggered_only = yes
	
	option = {
		name = allclan.814.a

		remove_province_modifier = allclan_dwarven_uprising
		spawn_rebels = {
			type = allclan_dwarf_insurgents_rebels
			size = 200
		}
		spawn_rebels = {
			type = allclan_dwarf_insurgents_rebels
			size = 200
		}
		spawn_rebels = {
			type = allclan_dwarf_insurgents_rebels
			size = 200
		}
		ai_chance = { factor = 25 }
	}
}

#glf uprising

country_event = { #GLF rise up!
	id = allclan.821
	title = allclan.822.t
	desc = allclan.822.d
	picture = TRADEGOODS_eventPicture
	
	major = no

	trigger = {
		NOT = {
			has_country_flag = allclan_glf_rebels
			has_country_flag = allclan_glf_defeated
		}
		check_variable = {
			which = AllclanTensionVariable
			value = 100
		}
		#check_variable = {
		#	which = MonthsSinceKinstrife
		#	value = 60 #5 years
		#}
		had_country_flag = {
			flag = allclan_kinstrife_started
			days = 1200
		}
	}

	is_triggered_only = yes
	
	option = {
		name = allclan.822.a #We will fight!

		set_country_flag = allclan_glf_rebels

		every_known_country = {
			limit = {
				primary_culture = cave_goblin
				has_country_modifier = allclan_defeat_the_allclan
			}
			country_event = {
				id = allclan.822
				days = 0
			}
		}

		ai_chance = { factor = 25 }
	}
}

country_event = { #add glf rebels to goblin splinter states
	id = allclan.822
	title = allclan.822.t
	desc = allclan.822.d
	picture = TRADEGOODS_eventPicture
	
	major = no
	#is_triggered_only = yes

	mean_time_to_happen = {
		days = 730
	}

	trigger = {
		has_country_modifier = allclan_defeat_the_allclan
		I98 = {
			has_country_flag = allclan_glf_rebels
		}
		NOT = {
			has_country_flag = allclan_glf_rebels
		}

	}
	
	option = {
		name = allclan.802.a #We will fight!

		set_country_flag = allclan_glf_rebels

		ai_chance = { factor = 25 }
	}
}

country_event = {
	id = allclan.823
	title = allclan.823.t
	desc = allclan.823.d
	picture = REVOLUTION_eventPicture
	
	major = yes
	
	is_triggered_only = yes

	mean_time_to_happen = {
		days = 1
	}
	

	immediate = {
		add_stability = -3
		set_country_flag = had_revolution
		country_event = {
			id = allclan.828
			days = 5
			random = 85
		}
	}
	
	option = {
		name = allclan.823.a
		add_prestige = -20
	}
}

country_event = { #end of the uprising
	id = allclan.824
	title = allclan.824.t
	desc = allclan.824.d
	picture = REVOLUTION_eventPicture
	
	major = no
	
	is_triggered_only = yes
	hidden = yes
	

	immediate = {
		clr_country_flag = allclan_glf_rebels
		if = {
			limit = {
				has_country_modifier = allclan_glf
			}
			country_event = { #lost to the glf
				id = allclan.825
				days = 0
			}
		}
		else = {
			country_event = {
				id = allclan.826
				days = 0
			}
		}
	}
	
	option = {
		name = allclan.823.a
	}
}

country_event = { #lost to the glf
	id = allclan.825
	title = allclan.825.t
	desc = allclan.825.d
	picture = REVOLUTION_eventPicture
	
	major = yes
	
	is_triggered_only = yes
	

	immediate = {
	}
	
	option = {
		name = allclan.825.a

		add_prestige = -100
		add_stability = -6
		kill_ruler = yes

		if = {
			limit = {
				tag = I98
			}
			every_enemy_country = {
				limit = {
					has_country_modifier = allclan_defeat_the_allclan
				}
				white_peace = PREV
				add_truce_with = PREV
				country_event = {
					id = allclan.827
					days = 0
				}
			}
		}
		else = {
			every_enemy_country = {
				limit = {
					has_country_modifier = allclan_glf
				}
				white_peace = PREV
				add_truce_with = PREV
				country_event = {
					id = allclan.827
					days = 0
				}
			}
		}
	}
}

country_event = { #crushed the glf
	id = allclan.826
	title = allclan.826.t
	desc = allclan.826.d
	picture = REVOLUTION_eventPicture
	
	major = yes
	
	is_triggered_only = yes
	

	immediate = {
	}
	
	option = {
		name = allclan.826.a

		add_stability = 1
		add_country_modifier = {
			name = allclan_glf_defeated
			duration = -1
		}
	}
}

country_event = { #white peace event for GLF countries
	id = allclan.827
	title = allclan.827.t
	desc = allclan.827.d
	picture = REVOLUTION_eventPicture

	major = no
	
	is_triggered_only = yes

	
	option = {
		name = allclan.827.a

		add_prestige = 20
		add_adm_power = 100
		add_dip_power = 100
		add_mil_power = 100
	}
}


country_event = { #glf revolt
	id = allclan.828
	title = allclan.828.t
	desc = allclan.828.d
	picture = REVOLUTION_eventPicture
	
	major = yes
	
	is_triggered_only = yes

	trigger = {
		always = yes
	}

	immediate = {
		every_owned_province = {
			limit = {
				controlled_by = ROOT
				has_goblin_majority_trigger = yes
			}
			if = {
				limit = {
					NOT = {
						owner = { tag = I98 }
					}
				}
				random = {
					chance = 7
					add_province_modifier = {
						name = allclan_kinstrife_stronghold
						duration = -1
					}
					spawn_rebels = {
						type = allclan_glf_rebels
						size = 200
						win = yes
					}
					spawn_rebels = {
						type = allclan_glf_rebels
						size = 200
					}
				}
			}
			else_if = {
				limit = {
					check_variable = {
						which = AllclanTensionVariable
						value = 500
					}
				}
				random = {
					chance = 15
					add_province_modifier = {
						name = allclan_kinstrife_stronghold
						duration = -1
					}
					spawn_rebels = {
						type = allclan_glf_rebels
						size = 200
						win = yes
					}
					spawn_rebels = {
						type = allclan_glf_rebels
						size = 200
					}
				}
			}
			else_if = {
				limit = {
					check_variable = {
						which = AllclanTensionVariable
						value = 300
					}
				}
				random = {
					chance = 10
					add_province_modifier = {
						name = allclan_kinstrife_stronghold
						duration = -1
					}
					spawn_rebels = {
						type = allclan_glf_rebels
						size = 200
						win = yes
					}
					spawn_rebels = {
						type = allclan_glf_rebels
						size = 200
					}
				}
			}
			else = {
				random = {
					chance = 5
					add_province_modifier = {
						name = allclan_kinstrife_stronghold
						duration = -1
					}
					spawn_rebels = {
						type = allclan_glf_rebels
						size = 200
						win = yes
					}
					spawn_rebels = {
						type = allclan_glf_rebels
						size = 200
					}
				}
			}
		}
	}
	
	option = {
		name = allclan.828.a #send the armies in!!

	}
}

country_event = { #glf revolt
	id = allclan.829
	title = allclan.829.t
	desc = allclan.829.d
	picture = REVOLUTION_eventPicture
	
	major = no
	
	is_triggered_only = yes

	trigger = {
		any_owned_province = {
			has_province_modifier = allclan_kinstrife_stronghold
			controlled_by = ROOT
		}
	}

	immediate = {
		random_owned_province = {
			limit = {
				has_province_modifier = allclan_kinstrife_stronghold
				controlled_by = ROOT
			}
			spawn_rebels = {
				type = allclan_glf_rebels
				size = 200
				win = yes
			}
		}
	}
	
	option = {
		name = allclan.828.a #send the armies in!!

	}
}

country_event = { #glf reinforcements
	id = allclan.830
	title = allclan.830.t
	desc = allclan.830.d
	picture = REVOLUTION_eventPicture
	
	major = no
	
	is_triggered_only = yes
	
	trigger = {
		any_owned_province = {
			has_province_modifier = allclan_kinstrife_stronghold
			has_rebel_faction = allclan_glf_rebels
		}
	}

	immediate = {
		random_owned_province = {
			limit = {
				has_province_modifier = allclan_kinstrife_stronghold
				has_rebel_faction = allclan_glf_rebels
			}
			spawn_rebels = {
				type = allclan_glf_rebels
				size = 200
			}
		}
	}
	
	option = {
		name = allclan.830.a #Traitors!

	}
}

country_event = { #glf reinforcements
	id = allclan.831
	title = allclan.830.t
	desc = allclan.830.d
	picture = REVOLUTION_eventPicture
	
	major = no
	
	is_triggered_only = yes
	
	trigger = {
		any_owned_province = {
			has_province_modifier = allclan_kinstrife_stronghold
			has_rebel_faction = allclan_glf_rebels
		}
	}

	immediate = {
		random_owned_province = {
			limit = {
				has_province_modifier = allclan_kinstrife_stronghold
				has_rebel_faction = allclan_glf_rebels
			}
			spawn_rebels = {
				type = allclan_glf_rebels
				size = 100
			}
		}
	}
	
	option = {
		name = allclan.830.a #Traitors!

	}
}

#bad shit from tension

country_event = { #mass agitation
	id = allclan.851
	title = allclan.851.t
	desc = allclan.851.d
	picture = TRADEGOODS_eventPicture
	
	major = no

	trigger = {
		check_variable = {
			which = AllclanTensionVariable
			value = 500
		}
	}

	is_triggered_only = yes
	
	option = {
		name = allclan.851.a #We will fight!

		every_owned_province = {
			add_nationalism = 5
		}
		ai_chance = { factor = 25 }
	}
}

country_event = { #rebels in your capital slums
	id = allclan.852
	title = allclan.852.t
	desc = allclan.852.d
	picture = TRADEGOODS_eventPicture
	
	major = no

	trigger = {
		check_variable = {
			which = AllclanTensionVariable
			value = 200
		}
	}

	is_triggered_only = yes
	
	option = {
		name = allclan.851.a #We will fight!

		capital_scope = {
			spawn_rebels = {
				type = anti_tax_rebels
				size = 100
			}
		}
		ai_chance = { factor = 25 }
	}
}

country_event = { #politicial violence on the rise
	id = allclan.853
	title = allclan.853.t
	desc = allclan.853.d
	picture = TRADEGOODS_eventPicture
	
	major = no

	trigger = {
		check_variable = {
			which = AllclanTensionVariable
			value = 100
		}
	}

	is_triggered_only = yes
	
	option = {
		name = allclan.851.a #We will fight!

		random_owned_province = {
			limit = {
				nationalism = 1
				culture = cave_goblin
			}
			add_nationalism = 5
			add_devastation = 10
		}
		ai_chance = { factor = 25 }
	}
}

#risings

country_event = { #spiderwretch rising
	id = allclan.854
	title = allclan.854.t
	desc = allclan.854.d
	picture = TRADEGOODS_eventPicture
	
	major = no

	trigger = {
		check_variable = {
			which = AllclanTensionVariable
			value = 100
		}
		had_country_flag = {
			flag = allclan_kinstrife_started
			days = 730
		}
		NOT = {
			has_country_flag = spiderwretch_rising
		}
	}

	immediate = {
		hidden_effect = {
			set_country_flag = spiderwretch_rising
			H90 = {
				every_core_province = {
					limit = {
						owned_by = I98
					}
					spawn_rebels = {
						type = goblin_nationalist_rebels
						size = 200
						friend = H90
						win = yes
					}
					spawn_rebels = {
						type = goblin_nationalist_rebels
						size = 200
						friend = H90
					}
					spawn_rebels = {
						type = goblin_nationalist_rebels
						size = 200
						friend = H90
						female = yes
					}
				}
			}
		}
	}

	is_triggered_only = yes
	
	option = {
		name = allclan.851.a #We will fight!

		add_stability = -1
		ai_chance = { factor = 25 }
	}
}

country_event = { #thieving arrow rising
	id = allclan.855
	title = allclan.855.t
	desc = allclan.855.d
	picture = TRADEGOODS_eventPicture
	
	major = no

	trigger = {
		check_variable = {
			which = AllclanTensionVariable
			value = 100
		}
		had_country_flag = {
			flag = allclan_kinstrife_started
			days = 730
		}
		NOT = {
			has_country_flag = thieving_arrow_rising
		}
	}

	immediate = {
		hidden_effect = {
			set_country_flag = thieving_arrow_rising
			H87 = {
				every_core_province = {
					limit = {
						owned_by = I98
					}
					spawn_rebels = {
						type = goblin_nationalist_rebels
						size = 200
						friend = H87
						win = yes
					}
					spawn_rebels = {
						type = goblin_nationalist_rebels
						size = 200
						friend = H87
					}
					spawn_rebels = {
						type = goblin_nationalist_rebels
						size = 200
						friend = H87
						female = yes
					}
				}
			}
		}
	}

	is_triggered_only = yes
	
	option = {
		name = allclan.851.a #We will fight!

		add_stability = -1
		ai_chance = { factor = 25 }
	}
}

country_event = { #truedagger rising
	id = allclan.856
	title = allclan.856.t
	desc = allclan.856.d
	picture = TRADEGOODS_eventPicture
	
	major = no

	trigger = {
		check_variable = {
			which = AllclanTensionVariable
			value = 300
		}
		had_country_flag = {
			flag = allclan_kinstrife_started
			days = 730
		}
		NOT = {
			has_country_flag = truedagger_rising
		}
	}

	immediate = {
		hidden_effect = {
			set_country_flag = truedagger_rising
			H85 = {
				every_core_province = {
					limit = {
						owned_by = I98
					}
					spawn_rebels = {
						type = goblin_nationalist_rebels
						size = 200
						friend = H85
						win = yes
					}
					spawn_rebels = {
						type = goblin_nationalist_rebels
						size = 200
						friend = H85
					}
					spawn_rebels = {
						type = goblin_nationalist_rebels
						size = 200
						friend = H85
						female = yes
					}
				}
			}
		}
	}

	is_triggered_only = yes
	
	option = {
		name = allclan.851.a #We will fight!

		add_stability = -1
		ai_chance = { factor = 25 }
	}
}

country_event = { #mountainshark rising
	id = allclan.857
	title = allclan.857.t
	desc = allclan.857.d
	picture = TRADEGOODS_eventPicture
	
	major = no

	trigger = {
		check_variable = {
			which = AllclanTensionVariable
			value = 300
		}
		had_country_flag = {
			flag = allclan_kinstrife_started
			days = 730
		}
		NOT = {
			has_country_flag = mountainshark_rising
		}
	}

	immediate = {
		hidden_effect = {
			set_country_flag = mountainshark_rising
			H84 = {
				every_core_province = {
					limit = {
						owned_by = I98
					}
					spawn_rebels = {
						type = goblin_nationalist_rebels
						size = 200
						friend = H84
						win = yes
					}
					spawn_rebels = {
						type = goblin_nationalist_rebels
						size = 200
						friend = H84
					}
					spawn_rebels = {
						type = goblin_nationalist_rebels
						size = 200
						friend = H84
						female = yes
					}
				}
			}
		}
	}

	is_triggered_only = yes
	
	option = {
		name = allclan.851.a #We will fight!

		add_stability = -1
		ai_chance = { factor = 25 }
	}
}

country_event = { #snotfinger rising
	id = allclan.858
	title = allclan.858.t
	desc = allclan.858.d
	picture = TRADEGOODS_eventPicture
	
	major = no

	trigger = {
		check_variable = {
			which = AllclanTensionVariable
			value = 300
		}
		had_country_flag = {
			flag = allclan_kinstrife_started
			days = 730
		}
		NOT = {
			has_country_flag = snotfinger_rising
		}
	}

	immediate = {
		hidden_effect = {
			set_country_flag = snotfinger_rising
			H89 = {
				every_core_province = {
					limit = {
						owned_by = I98
					}
					spawn_rebels = {
						type = goblin_nationalist_rebels
						size = 200
						friend = H89
						win = yes
					}
					spawn_rebels = {
						type = goblin_nationalist_rebels
						size = 200
						friend = H89
					}
					spawn_rebels = {
						type = goblin_nationalist_rebels
						size = 200
						friend = H89
						female = yes
					}
				}
			}
		}
	}

	is_triggered_only = yes
	
	option = {
		name = allclan.851.a #We will fight!

		add_stability = -1
		ai_chance = { factor = 25 }
	}
}

country_event = { #greedy grin rising
	id = allclan.859
	title = allclan.859.t
	desc = allclan.859.d
	picture = TRADEGOODS_eventPicture
	
	major = no

	trigger = {
		check_variable = {
			which = AllclanTensionVariable
			value = 100
		}
		had_country_flag = {
			flag = allclan_kinstrife_started
			days = 730
		}
		NOT = {
			has_country_flag = greedy_grin_rising
		}
	}

	immediate = {
		hidden_effect = {
			set_country_flag = greedy_grin_rising
			H82 = {
				every_core_province = {
					limit = {
						owned_by = I98
					}
					spawn_rebels = {
						type = goblin_nationalist_rebels
						size = 200
						friend = H82
						win = yes
					}
					spawn_rebels = {
						type = goblin_nationalist_rebels
						size = 200
						friend = H82
					}
					spawn_rebels = {
						type = goblin_nationalist_rebels
						size = 200
						friend = H82
						female = yes
					}
				}
			}
		}
	}

	is_triggered_only = yes
	
	option = {
		name = allclan.851.a #We will fight!

		add_stability = -1
		ai_chance = { factor = 25 }
	}
}

country_event = { #tree of stone rising
	id = allclan.860
	title = allclan.860.t
	desc = allclan.860.d
	picture = TRADEGOODS_eventPicture
	
	major = no

	trigger = {
		had_country_flag = {
			flag = allclan_kinstrife_started
			days = 730
		}
		NOT = {
			has_country_flag = tree_of_stone_rising
		}
	}

	immediate = {
		hidden_effect = {
			set_country_flag = tree_of_stone_rising
			I99 = {
				every_core_province = {
					limit = {
						owned_by = I98
					}
					spawn_rebels = {
						type = goblin_nationalist_rebels
						size = 300
						friend = I99
						win = yes
					}
					spawn_rebels = {
						type = goblin_nationalist_rebels
						size = 300
						friend = I99
					}
					spawn_rebels = {
						type = goblin_nationalist_rebels
						size = 300
						friend = I99
						female = yes
					}
				}
			}
		}
	}

	is_triggered_only = yes
	
	option = {
		name = allclan.851.a #We will fight!

		add_stability = -1
		ai_chance = { factor = 25 }
	}
}