 namespace = infestation

#  notes for testing: 
#  spawn a random infestation in one of your own provinces with infestation.0
#  find a random infestation globally with infestation.1000
#  find a random infestation locally with infestation.1001
#
#  When adding a new random infestation type, make sure to add it to 
#  infestation.0 or it will never spawn randomly
#  and infestation.2000 to aid in easy cleanup while debugging
#
#  see anb_infestation_*.txt for monsters you can base your designs off of
#  try to use the same event number between different monsters to improve consistency
#  and troubleshooting
#
#  generate a new infestation in the province designated
#  calling this event directly creates a single infestation only
 province_event = {
     id = infestation.0
     title = infestation.0.t
     desc = infestation.0.d
     picture = COMET_SIGHTED_eventPicture
    
     is_triggered_only = yes
     hidden = yes

    #mean_time_to_happen = {
	#	days = 31
	#}
    
     trigger = {
         is_city = yes # no infestations in sea tiles, uncolonized land, wasteland
         NOT = { has_province_flag = infestation_present }
         has_influencing_fort = no  #forts prevent infestations from spawning if active
     }
    
     #now we go through a list of random monsters we can spawn
     #whenever you create a new monster, add it to this list or it will never
     #randomly spawn

    #  Nothing
    #  this is here so that if no reasonable spawn choice is
    #  available for this province, then nothing will spawn and it 
    #  won't break anything.
    option = {
        ai_chance = { factor = 2 }
    }
    #Goblins
    #spawn as infestation in and around serpentspine, but only if it makes
    #sense for them to be considered an infestation
    option = {
        trigger = {
           #  anb scripted racial triggers; gobbos only where gobbos not liked/accepted
            owner = { ruler_is_goblin = no }
            owner = { monstrous_culture = no }
            owner = { has_goblin_accepted_culture = no }
            owner = { low_tolerance_goblin_race_trigger = yes }
            NOT = {
                OR = {
                    continent = north_america  #no gobos in aelantir #yet...
                    continent = south_america  #no gobos in aelantir #yet...
                }
            }
        }
        ai_chance = { 
            factor = 1  #low default chance, except...
            modifier = {
                factor = 5
                OR = {
                    continent = europe  #europe == cannor; greentide goblins everywhere
                    continent = serpentspine  #where they're really quite common
                }
            }
            modifier = {
                factor = 2
                OR = {
                    superregion = rahen_superregion #due to serpentspine proximity
                    superregion = bulwar_superregion  #makes sense regionally; redundant w/ asia?
                    superregion = escann_superregion  #double the chances vs rest of cannor
                    superregion = forbidden_lands_superregion  #due to serpentspine proximity
                    superregion = deepwoods_superregion  #so they bug the elves
                }
            }
        }
        province_event = { id = infestation_goblin.0 days = 1 }
    }
      #Harpies
     #spawn as infestation in and around bulwar, west rahen
    option = {
        trigger = {
             #anb scripted racial triggers; wild harpies only where harpies not liked/accepted
            owner = { ruler_is_harpy = no }
            owner = { has_harpy_accepted_culture = no }
            owner = { low_tolerance_harpy_race_trigger = yes }
            OR = {
                superregion = bulwar_superregion
                region = rakhadesh_region  #western Rahen
                region = serpent_gift_region  #through mountain pass; centaurs here
                area = irdu_ageeneas_area  #through mountain pass; centaurs here 
            }
        }
        ai_chance = { 
            factor = 3 # medium chance; slightly more common than goblins in these regions
        }
        province_event = { id = infestation_harpy.0 days = 1 }
    }
    
     # Dragons
     # Named Dragon: Merathis (Cannor)
    option = {
        trigger = {
            is_year = 1522  #picked arbitrarily to push this content later into the game
            NOT = { has_global_flag = infestation_dragon_merathis_spawned }
            continent = cannor  #merathis is a cannorian dragon
        }
        ai_chance = { 
            factor = 1 
            modifier = {
                factor = 3
                OR = {
                    has_terrain = mountain
                    has_terrain = highlands
                    has_terrain = cavern
                    has_terrain = dwarven_hold
                    has_terrain = dwarven_hold_surface
                }
            }
        }
        set_global_flag = infestation_dragon_merathis_spawned
        province_event = { id = infestation_dragon_merathis.0 days = 1 }
    }
   
   # Undead
   # Zombies (for apocalype) - 
    option = {
        trigger = {
            is_year = 1488  #picked arbitrarily to push this content back from game start
            NOT = { has_global_flag = infestation_zombie_apocalypse_enabled }
        }
        ai_chance = { 
            factor = 1
            modifier = {
                factor = 0.1
                has_global_flag = infestation_zombie_apocalypse_happened
            }
            modifier = {
                factor = 2
                estate_influence = {
                    estate = estate_mages
                    influence = 50
                }
            }
            modifier = {
                factor = 3
                has_building = mage_tower
            }
            modifier = {
                factor = 5
                owner = {
                    OR = {
                        AND = {
                            personality = mage
                            OR = { 
                                has_ruler_flag = necromancy_1
                                has_ruler_flag = necromancy_2
                                has_ruler_flag = necromancy_3
                            }
                        }
                        AND = {
                            heir_has_personality = mage
                            OR = { 
                                has_ruler_flag = necromancy_1
                                has_ruler_flag = necromancy_2
                                has_ruler_flag = necromancy_3
                            }
                        }
                    }
                }
            }
        }
        province_event = { id = infestation_zombie.0 days = 1 }
    }
    
 }


  #pulses every month to put a monster on the map

  #shit fixed
 province_event = {
     id = infestation.1
     title = infestation.1.t
     desc = infestation.1.d
     picture = COMET_SIGHTED_eventPicture
    
     is_triggered_only = yes
     hidden = yes
    
     immediate = {
        #find us a random province to spawn out monster
        random_province = {
            limit = {
                is_city = yes # no infestations in sea tiles, uncolonized land, wasteland
                NOT = { has_province_flag = infestation_present }
            }
            save_event_target_as = infestation_target
        }
     }
    
    option = {
       ai_chance = { factor = 100 }
       hidden_effect = {
           #event_target:infestation_target = {
           #    province_event = { id = infestation.1 days = 30 random = 5 } #recursion is bad mkay
           #}
           province_event = { id = infestation.0 } # spawn a monster here
       }
    }
 }

#  set up our event chain by abusing an existing country with a known colonized province
#  524 is owned by magesterium, tag A85, in 1444, and should always be owned by someone
#  we do it this way so that the check only happens once at game start
#  after which every subsequent event is scoped to a single province
 #country_event = {
 #    id = infestation.2
 #    title = infestation.2.t
 #    desc = infestation.2.d
 #    picture = COMET_SIGHTED_eventPicture
 #   
 #    fire_only_once = yes
 #    hidden = yes
 #    major = yes
 #    is_triggered_only = no
 #   
 #    mean_time_to_happen = { 
 #        days = 1
 #    }
 #    trigger = {
 #        owns = 524
 #    }
 #   
 #    immediate = {
 #        random_province = {
 #            limit = {
 #                is_city = yes # no infestations in sea tiles, uncolonized land, wasteland
 #                NOT = { has_province_flag = infestation_present }
 #            }
 #            save_event_target_as = infestation_target
 #        }
 #    }
 #    option = {
 #        ai_chance = { factor = 100 }
 #        hidden_effect = {
 #            event_target:infestation_target = {
 #                province_event = { id = infestation.1 days = 30 random = 5 }
 #            }
 #        }
 #    }
 #}
 
    
    

# a debug event, to find province where infestation has spawned
# allowing you to tag switch to them and play it out
 country_event = {
     id = infestation.1000
     title = infestation.1000.t
     desc = infestation.1000.d
     picture = COMET_SIGHTED_eventPicture
    
     is_triggered_only = yes
    
     mean_time_to_happen = {
         days = 1
     }
    
     trigger = {
    
     }
    
     immediate = {
         random_province = {
             limit = {
                 has_province_flag = infestation_present
             }
             save_event_target_as = infested_target1
         }
         random_province = {
             limit = {
                 has_province_flag = infestation_present
             }
             save_event_target_as = infested_target2
         }        
         random_province = {
             limit = {
                 has_province_flag = infestation_present
             }
             save_event_target_as = infested_target3
         }
         random_province = {
             limit = {
                 has_province_flag = infestation_present
             }
             save_event_target_as = infested_target4
         }
         random_province = {
             limit = {
                 has_province_flag = infestation_present
             }
             save_event_target_as = infested_target5
         }
     }
     option = {
         name = infestation.1000.a
         goto = infested_target1
     }
     option = {
         name = infestation.1000.a
         goto = infested_target2
     }
     option = {
         name = infestation.1000.a
         goto = infested_target3
     }
     option = {
         name = infestation.1000.a
         goto = infested_target4
     }
     option = {
         name = infestation.1000.a
         goto = infested_target5
     }
 }

 # same debug event, limited to owned provinces, to find province where infestation has spawned
 country_event = {
     id = infestation.1001
     title = infestation.1001.t
     desc = infestation.1001.d
     picture = COMET_SIGHTED_eventPicture
    
     is_triggered_only = yes
    
     mean_time_to_happen = {
         days = 1
     }
    
     trigger = {
    
     }
    
     immediate = {
         random_owned_province = {
             limit = {
                 has_province_flag = infestation_present
             }
             save_event_target_as = infested_target1
         }
         random_owned_province = {
             limit = {
                 has_province_flag = infestation_present
             }
             save_event_target_as = infested_target2
         }        
         random_owned_province = {
             limit = {
                 has_province_flag = infestation_present
             }
             save_event_target_as = infested_target3
         }
         random_owned_province = {
             limit = {
                 has_province_flag = infestation_present
             }
             save_event_target_as = infested_target4
         }
         random_owned_province = {
             limit = {
                 has_province_flag = infestation_present
             }
             save_event_target_as = infested_target5
         }
     }
     option = {
         name = infestation.1001.a
         goto = infested_target1
     }
     option = {
         name = infestation.1001.a
         goto = infested_target2
     }
     option = {
         name = infestation.1001.a
         goto = infested_target3
     }
     option = {
         name = infestation.1001.a
         goto = infested_target4
     }
     option = {
         name = infestation.1001.a
         goto = infested_target5
     }
 }

#  cleanup event - call for any reason on any province to remove all trace of infestation
#  when creating a new infestation type, make sure you add its cleanup event to this list
 province_event = {
     id = infestation.2000
     title = infestation.2000.t
     desc = infestation.2000.d
     picture = COMET_SIGHTED_eventPicture
    
     is_triggered_only = yes
     hidden = yes
    
     option = {
         ai_chance = { factor = 100 }
         province_event = { id = infestation_goblin.2000 }
         province_event = { id = infestation_dragon_merathis.2000 }
     }
 }
