# namespace = debug

# Swap mission
# country_event = {
	# id = debug.1
	# title = debug.1.t
	# desc = debug.1.d
	# picture = GOOD_WITH_MONARCH_eventPicture
	
	# fire_only_once = yes
	
	# is_triggered_only = yes
	
	# trigger = {
		# always = yes
	# }
	
	# option = {
		# name = debug.1.a
		
		# swap_non_generic_missions = yes
	# }
# }

# change religion
# country_event = {
	# id = debug.2
	# title = debug.1.t
	# desc = debug.1.d
	# picture = GOOD_WITH_MONARCH_eventPicture
	
	# fire_only_once = yes
	
	# is_triggered_only = yes
	
	# trigger = {
		# always = yes
	# }
	
	# option = {
		# name = debug.1.a
		
		# change_religion = soise_vio
		# every_owned_province = {
			# change_religion = soise_vio
		# }
	# }
# }
	
# Construction shit
# country_event = {
	# id = debug.3
	# title = debug.1.t
	# desc = debug.1.d
	# picture = GOOD_WITH_MONARCH_eventPicture
	
	# fire_only_once = yes
	
	# is_triggered_only = yes
	
	# trigger = {
		# always = yes
	# }
	
	# option = {
		# name = debug.1.a
		
		# capital_scope = {
			# add_construction_progress = 0.05
		# }
	# }
	
	# option = {
		# name = debug.1.a
		
		# capital_scope = {
			# add_construction_progress = 0.5
		# }
	# }
	
	# option = {
		# name = debug.1.a
		
		# capital_scope = {
			# add_construction_progress = 1
		# }
	# }
	
	# option = {
		# name = debug.1.a
		
		# capital_scope = {
			# add_construction_progress = -1
		# }
	# }
	
	# option = {
		# name = debug.1.a
		
		# capital_scope = {
			# add_construction_progress = -0.5
		# }
	# }
# }

# Finish construction
# province_event = {
	# id = debug.4
	# title = debug.1.t
	# desc = debug.1.d
	# picture = GOOD_WITH_MONARCH_eventPicture
	# goto = root
	
	# fire_only_once = yes
	
	# is_triggered_only = yes
	
	# trigger = {
		# always = yes
	# }
	
	# option = {
		# name = debug.1.a
		
		# add_construction_progress = 1
	# }
# }

# Province are what i want them to be
# province_event = {
	# id = debug.5
	# title = debug.1.t
	# desc = debug.1.d
	# picture = GOOD_WITH_MONARCH_eventPicture
	# goto = root
	
	# fire_only_once = yes
	
	# is_triggered_only = yes
	
	# trigger = {
		# always = yes
	# }
	
	# option = {
		# name = debug.1.a
		
		# change_religion = ancestor_worship
		# change_culture = ramsteel_dwarf
	# }
# }

# country_event = {
	# id = debug.7
	# title = debug.7.t
	# desc = debug.7.d
	# picture = GOOD_WITH_MONARCH_eventPicture
	
	# is_triggered_only = yes
	
	# trigger = {
		# always = yes
	# }
	
	# option = {
		# name = debug.7.a
		
		# set_country_flag = free_the_colonists
	# }
# }

# country_event = {
	# id = debug.8
	# title = debug.7.t
	# desc = debug.7.d
	# picture = GOOD_WITH_MONARCH_eventPicture
	
	# is_triggered_only = yes
	
	# trigger = {
		# always = yes
	# }
	
	# option = {
		# name = debug.7.a
		
		# bloodgroves_region = {
			# add_permanent_claim = ROOT
		# }
	# }
# }

# country_event = {
	# id = debug.9
	# title = debug.7.t
	# desc = debug.7.d
	# picture = GOOD_WITH_MONARCH_eventPicture
	
	# is_triggered_only = yes
	
	# trigger = {
		# always = yes
	# }
	
	# option = {
		# name = debug.7.a
		
		# set_estate_privilege = estate_blood_court_masquerade_soon_to_be_unveil
	# }
	# option = {
		# name = debug.8.a
		
		# set_estate_privilege = estate_blood_court_masquerade_suspicious
	# }
# }