namespace = goblin_migration

country_event = {
	id = goblin_migration.0
	title = goblin_migration.0.t
	desc = goblin_migration.0.d
	picture = BORDER_TENSION_eventPicture
	goto = racial_pop_province_target
	
	fire_only_once = yes
	
	trigger = {
			is_year = 1500
			NOT = { is_year = 1650 }
			NOT = { has_global_flag = goblin_migration_beginning }
			OR = {
				owns_core_province = 724
				owns_core_province = 752
				owns_core_province = 731
				owns_core_province = 723
				owns_core_province = 705
				owns_core_province = 700
				owns_core_province = 703
				owns_core_province = 702
				owns_core_province = 704
				owns_core_province = 722
				owns_core_province = 706
				owns_core_province = 721
				}
		}
		
	immediate = {
		hidden_effect = {
			set_country_flag = goblin_migration_start
			set_global_flag = goblin_migration_beginning
		}
	}
	
	mean_time_to_happen = {
		months = 330
		
		modifier = {
			factor = 0.2
			ai = no	
		}
	}
	option = {
		name = goblin_migration.0.a
		ai_chance = {
			factor = 100
		}
		random_owned_province = {
			limit = {
				OR = {
				area = dinesck_area
				area = west_chillsbay_area
				area = northern_greatwoods_area
				}
			}
			save_event_target_as = racial_pop_province_target
		}
		event_target:racial_pop_province_target = {
			add_goblin_minority_size_effect = yes
			random = {
					chance = 10
					add_base_tax = 1
			}
			random = {
					chance = 10
					add_base_production = 1
			}
			random = {
					chance = 10
					add_base_manpower = 1
			}
		}
	}			
}

country_event = {
	id = goblin_migration.1
	title = goblin_migration.1.t
	desc = goblin_migration.1.d
	picture = BORDER_TENSION_eventPicture
	goto = racial_pop_province_target
	
	fire_only_once = yes
	
	trigger = {
			is_year = 1500
			NOT = { is_year = 1650 }
			NOT = { has_country_flag = goblin_migration_start }
			has_global_flag = goblin_migration_beginning
			OR = {
				owns_core_province = 724
				owns_core_province = 752
				owns_core_province = 731
				owns_core_province = 723
				owns_core_province = 705
				owns_core_province = 700
				owns_core_province = 703
				owns_core_province = 702
				owns_core_province = 704
				owns_core_province = 722
				owns_core_province = 706
				owns_core_province = 721
				}
		}
		
	immediate = {
		hidden_effect = {
			set_country_flag = goblin_migration_start
		}
	}
	
	mean_time_to_happen = {
		months = 20
	}
			
	option = {
		name = goblin_migration.1.a
		ai_chance = {
			factor = 100
		}
		random_owned_province = {
			limit = {
				OR = {
				area = dinesck_area
				area = west_chillsbay_area
				area = northern_greatwoods_area
				}
			}
			save_event_target_as = racial_pop_province_target
		}
		event_target:racial_pop_province_target = {
			add_goblin_minority_size_effect = yes
			random = {
					chance = 10
					add_base_tax = 1
			}
			random = {
					chance = 10
					add_base_production = 1
			}
			random = {
					chance = 10
					add_base_manpower = 1
			}
		}
	}			
}

country_event = {
	id = goblin_migration.2
	title = goblin_migration.2.t
	desc = goblin_migration.2.d
	picture = BORDER_TENSION_eventPicture
	goto = racial_pop_province_target
	
	trigger = {
			is_year = 1500
			NOT = { is_year = 1650 }
			has_global_flag = goblin_migration_beginning
			has_country_flag = goblin_migration_start
			OR = {
				owns_core_province = 724
				owns_core_province = 752
				owns_core_province = 731
				owns_core_province = 723
				owns_core_province = 705
				owns_core_province = 700
				owns_core_province = 703
				owns_core_province = 702
				owns_core_province = 704
				owns_core_province = 722
				owns_core_province = 706
				owns_core_province = 721
				}
		}
	
	mean_time_to_happen = {
		months = 150
	}
			
	option = {
		name = goblin_migration.2.a
		ai_chance = {
			factor = 100
		}
		random_owned_province = {
			limit = {
				OR = {
				area = dinesck_area
				area = west_chillsbay_area
				area = northern_greatwoods_area
				}
			}
			save_event_target_as = racial_pop_province_target
		}
		event_target:racial_pop_province_target = {
			add_goblin_minority_size_effect = yes
			random = {
					chance = 10
					add_base_tax = 1
			}
			random = {
					chance = 10
					add_base_production = 1
			}
			random = {
					chance = 10
					add_base_manpower = 1
			}
		}
	}			
}

country_event = {
	id = goblin_migration.3
	title = goblin_migration.3.t
	desc = goblin_migration.3.d
	picture = BORDER_TENSION_eventPicture
	
	trigger = {
		tag = Z28
		723 = {
			OR = {
				has_province_modifier = goblin_minority_oppressed_large
				has_province_modifier = goblin_minority_coexisting_large
				has_province_modifier = goblin_minority_integrated_large
			}
		}
	}
	
	mean_time_to_happen = {
		months = 60
	}

	option = {
		name = goblin_migration.3.a
		ai_chance = {
			factor = 100
		}
		
		large_increase_of_goblin_tolerance_effect = yes
		set_country_flag = goblin_voters
	}
	
	option = {
		name = goblin_migration.3.b
		ai_chance = {
			factor = 0
		}
		
		large_decrease_of_goblin_tolerance_effect = yes
	}
}
	
country_event = {
	id = goblin_migration.4
	title = goblin_migration.4.t
	desc = goblin_migration.4.d
	picture = BORDER_TENSION_eventPicture
	
	fire_only_once = yes 
	
	mean_time_to_happen = {
		months = 120
	}
	
	trigger = {
		tag = Z28
		has_country_flag = goblin_voters
		723 = {
			OR = {
				has_province_modifier = goblin_minority_integrated_large
			}
		}
	}
	
	option = {
		name = goblin_migration.4.a
		ai_chance = {
			factor = 100
		}
			change_primary_culture = city_goblin
			add_accepted_culture = blue_reachman
			set_country_flag = no_longer_monstrous
			
			723 = {
				change_culture = city_goblin 
			}
			
			override_country_name = BAYVEK
			clr_country_flag = goblin_voters
	}
}

country_event = {
	id = goblin_migration.5
	title = goblin_migration.5.t
	desc = goblin_migration.5.d
	picture = BORDER_TENSION_eventPicture
	
	fire_only_once = yes
	
	trigger = {
		always = no
		NOT = { tag = Z28 }
		NOT = { culture_group = goblin }
		NOT = { accepted_culture = city_goblin }
		owns_core_province = 723
		723 = {
			OR = {
				has_province_modifier = goblin_minority_oppressed_large
				has_province_modifier = goblin_minority_coexisting_large
				culture = city_goblin
			}
		}
		is_year = 1500
	}
	
	mean_time_to_happen = {
		months = 160
	}
	
	option = {
		name = goblin_migration.5.a
		ai_chance = {
			factor = 100
		}
		723 = {
			change_culture = city_goblin
			add_core = Z28
			cede_province = Z28
		}
		Z28 = { change_primary_culture = city_goblin }
	}
}

country_event = {
	id = goblin_migration.6
	title = goblin_migration.6.t
	desc = goblin_migration.6.d
	picture = BORDER_TENSION_eventPicture
	
	fire_only_once = yes
	
	trigger = {
		tag = Z28
		primary_culture = city_goblin
		religion = regent_court
		is_year = 1550
	}
	
	mean_time_to_happen = {
		months = 160
	}
	
	option = {
		name = goblin_migration.6.a
		ai_chance = {
			factor = 100
		}
		add_government_reform = technocracy
		change_religion = the_thought
		add_harmonized_religion = regent_court
	}
	
	option = {
		name = goblin_migration.6.b
		increase_legitimacy_small_effect = yes
	}
}

country_event = {
	id = goblin_migration.7
	title = goblin_migration.7.t
	desc = goblin_migration.7.d
	picture = BORDER_TENSION_eventPicture
	
	fire_only_once = yes
	
	trigger = {
		tag = Z28
		NOT = { primary_culture = city_goblin }
		723 = {
			OR = {
				has_province_modifier = goblin_minority_oppressed_large
				has_province_modifier = goblin_minority_coexisting_large
			}
		}
	}

	mean_time_to_happen = {
		months = 160
	}
	
	option = {
		name = goblin_migration.7.a
		ai_chance = {
			factor = 100
		}
		medium_increase_of_goblin_tolerance_effect = yes
		723 = {
			add_province_modifier = {
				name = bayvic_goblin_quarter
				duration = 7300
			}
		}
	}
	
	option = {
		name = goblin_migration.7.b
		ai_chance = {
			factor = 0
		}
		medium_decrease_of_goblin_tolerance_effect = yes
		723 = { remove_goblin_minority_size_effect = yes }
	}
}

country_event = {
	id = goblin_migration.8
	title = goblin_migration.8.t
	desc = goblin_migration.8.d
	picture = BORDER_TENSION_eventPicture
	
	fire_only_once = yes
	
	trigger = {
		tag = Z28
		NOT = { primary_culture = city_goblin }
		723 = {
			OR = {
				has_province_modifier = goblin_minority_oppressed_large
				has_province_modifier = goblin_minority_coexisting_large
			}
		}
	}

	mean_time_to_happen = {
		months = 160
	}
	
	option = {
		name = goblin_migration.8.a
		ai_chance = {
			factor = 100
		}
		large_increase_of_goblin_tolerance_effect = yes
		increase_legitimacy_medium_effect = yes
	}
	
	option = {
		name = goblin_migration.8.b
		ai_chance = {
			factor = 0
		}
		large_decrease_of_goblin_tolerance_effect = yes
		723 = { remove_goblin_minority_size_effect = yes }
	}
}
