namespace = anb_price
##############
## Incense
##############
### Incense goes up 2.5
country_event = {
	id = anb_price.1
	title = anb_price.1.t
	desc = anb_price.1.d
	picture = ADVISOR_eventPicture
	
	fire_only_once = yes
	major = yes
	
	mean_time_to_happen = {
		years = 1
	}
	
	trigger = {
		is_year = 1520
		OR = {
			incense = 2
			any_subject_country = {
				incense = 2
			}
		}
	}
	
	option = {
		name = anb_price.1.a
		ai_chance = { factor = 100 }
		
		change_price = {
			trade_goods = incense
			key = incense_rise_in_demand
			
			value = 0.2
			duration = -1
		}
		hidden_effect = { set_global_flag = incense_rise_in_demand }
	}
}

### Incense magic boom
country_event = {
	id = anb_price.2
	title = anb_price.2.t
	desc = anb_price.2.d
	picture = ADVISOR_eventPicture
	
	fire_only_once = yes
	major = yes
	mean_time_to_happen = {
		years = 1
	}
	
	trigger = {
		current_age = age_of_absolutism
		capital_scope = { continent = europe }
		OR = {
			incense = 3
			any_subject_country = {
				incense = 3
			}
		}
		NOT = { has_global_flag = incense_magic_boom }
	}
	
	option = {
		name = anb_price.2.a
		ai_chance = { factor = 100 }
		
		change_price = {
			trade_goods = incense
			key = incense_magic_boom
			
			value = 0.5
			duration = -1
		}
		hidden_effect = { set_global_flag = incense_magic_boom }
	}
}

### Age of Artificier Incense price
country_event = {
	id = anb_price.3
	title = anb_price.3.t
	desc = anb_price.3.d
	picture = BANKRUPTCY_eventPicture
	
	fire_only_once = yes
	major = yes
	mean_time_to_happen = {
		years = 1
	}
	
	trigger = {
		current_age = age_of_revolutions
		capital_scope = { continent = europe }
	}
	
	option = {
		name = anb_price.2.a
		ai_chance = { factor = 100 }
		
		change_price = {
			trade_goods = incense
			key = incense_artificier_age
			
			value = -0.8
			duration = -1
		}
	}
}

# Growth of the Perfume Industry
country_event = {
	id = anb_price.26
	title = anb_price.26.t
	desc = anb_price.26.d
	picture = TRADEGOODS_eventPicture
	goto = perfume_city_grass

	fire_only_once = yes
	
	major = yes

	trigger = {
		has_institution = global_trade
		any_owned_province = {
			has_terrain = farmlands #Flowers must grow here
			is_capital = no
			development = 15
			is_state = yes
			is_city = yes
			province_without_special_goods_produced_trigger = yes
		}
		NOT = { has_global_flag = perfume_industry }
	}
	
	immediate = {
		hidden_effect = {
			random_owned_province = {
				limit = {
					has_terrain = farmlands #Flowers must grow here
					is_capital = no
					development = 15
					is_state = yes
					is_city = yes
					province_without_special_goods_produced_trigger = yes
				}
				save_event_target_as = perfume_city_grass
			}
		}
	}
	
	mean_time_to_happen = {
		months = 1
	}
	
	option = {
		name = anb_price.26.a
		event_target:perfume_city_grass = {
			change_trade_goods = incense
			add_permanent_province_modifier = {
				name = "perfume_capital"
				duration = -1
			}
			if = {
				limit = {
					has_building = mills
				}
				remove_building = mills
				add_building = tradecompany
			}
			else_if = {
				limit = {
					has_building = farm_estate
				}
				remove_building = farm_estate
				add_building = tradecompany
			}
			else_if = {
				limit = {
					has_building = plantations
				}
				remove_building = plantations
				add_building = tradecompany
			}
			else_if = {
				limit = {
					has_building = textile
				}
				remove_building = textile
				add_building = tradecompany
			}
			else_if = {
				limit = {
					has_building = weapons
				}
				remove_building = weapons
				add_building = tradecompany
			}
			else = {
				remove_building = wharf
				add_building = tradecompany
			}
		}
		change_price = {
			trade_goods = incense
			key = GROWTH_OF_PERFUME_BUSINESS
			value = 0.2
			duration = -1
		}
		hidden_effect = { set_global_flag = perfume_industry }
	}
}


##############
## Slaves
##############
### Orcish Slave Trade. Slave Price 2 -> 3.75
country_event = {
	id = anb_price.4
	title = anb_price.4.t
	desc = anb_price.4.d
	picture = SHIP_SAILING_eventPicture
	
	fire_only_once = yes
	major = yes
	mean_time_to_happen = {
		years = 1
	}
	
	trigger = {
		OR = {
			colony = 2
			
			AND = {
				is_year = 1500
				NOT = { has_country_modifier = ruinborn_administration }
				any_owned_province = {
					OR = {
						continent = north_america
						continent = south_america
					}
				}
			}
		}
		
		# any_known_country = {
			# capital_scope = {
				# continent = europe
			# }
			# colony = 1
		# }
		NOT = { has_global_flag = green_slave_demand }
	}
	
	option = {
		name = anb_price.4.a
		ai_chance = {factor = 100}
		add_years_of_income = 1
		change_price = {
			trade_goods = slaves
			key = green_slave_demand
			
			value = 0.875
			duration = -1
		}
		hidden_effect = { set_global_flag = green_slave_demand }
	}
}

# Abolitionism
country_event = {
	id = anb_price.45
	title = anb_price.45.t
	desc = anb_price.45.d
	picture = TRADE_GOODS_PLANTATION_GOODS_IN_WAREHOUSE_eventPicture

	fire_only_once = yes
	
	major = yes

	trigger = {
		has_country_modifier = the_abolish_slavery_act
		NOT = { has_global_flag = abolitionism_happened }
	}
	mean_time_to_happen = {
		years = 1
	}
	
	
	option = {
		name = anb_price.45.a
		change_price = {
			trade_goods = slaves
			key = ABOLITIONISM
			value = -0.5
			duration = -1
		}
		add_prestige = 10
	}
}

# Orcish Slave Trade Banned in Cannor
country_event = {
	id = anb_price.49
	title = anb_price.49.t
	desc = anb_price.49.d
	picture = TRADE_GOODS_PLANTATION_GOODS_IN_WAREHOUSE_eventPicture

	fire_only_once = yes
	
	major = yes

	trigger = {
		is_year = 1580
		#capital_scope = { superregion = escann_superregion }
		is_great_power = yes
		num_of_provinces_owned_or_owned_by_non_sovereign_subjects_with = {
			value = 5
			trade_goods = slaves
			superregion = escann_superregion
		}

	}
	mean_time_to_happen = {
		years = 5
	}
	
	
	option = {
		name = anb_price.45.a
		change_price = {
			trade_goods = slaves
			key = ORCISH_SLAVE_TRADE_BANNED_IN_CANNOR
			value = 1
			duration = 9125
		}
		
		add_years_of_income = -1
		
		custom_tooltip = tooltip_orcish_slave_trade_banned_in_cannor
		
		set_global_flag = orcish_slave_trade_banned_in_cannor
	}
}

##############
## Dyes
##############
### Price Dye Event. Noble use them to dye their hair. 4 -> 6
country_event = {
	id = anb_price.5
	title = anb_price.5.t
	desc = anb_price.5.d
	picture = TRADE_GOODS_PLANTATION_GOODS_IN_WAREHOUSE_eventPicture
	
	fire_only_once = yes
	major = yes
	mean_time_to_happen = {
		years = 1
	}
	
	trigger = {
		current_age = age_of_absolutism
		capital_scope = { continent = europe }
		OR = {
			dyes = 1
			any_subject_country = { dyes = 1 }
		}
		NOT = { has_global_flag = cannor_noble_fashion }
	}
	
	option = {
		name = anb_price.5.a
		ai_chance = { factor = 100 }
		
		change_price = {
			trade_goods = dyes
			key = noble_dye_hair
			
			value = 0.5
			duration = -1
		}
		add_years_of_income = 0.75
		add_prestige = 20
		hidden_effect = { set_global_flag = cannor_noble_fashion }
	}
}

### Add special modifier to Viswall(North and south) when the price of Dye goes up
country_event = {
	id = anb_price.6
	title = anb_price.6.t
	desc = anb_price.6.d
	picture = TRADE_GOODS_PLANTATION_GOODS_IN_WAREHOUSE_eventPicture
	
	fire_only_once = yes
	major = yes
	mean_time_to_happen = {
		years = 1
	}
	
	trigger = {
		owns_core_province = 63
		owns_core_province = 66
		63 = { trade_goods = dyes }
		66 = { trade_goods = dyes }
		has_global_flag = cannor_noble_fashion
	}
	
	option = {
		name = anb_price.6.a
		ai_chance = { factor = 100 }
		
		63 = {
			add_permanent_province_modifier = {
				name = dye_of_europe
				duration = -1
			}
		}
		
		66 = {
			add_permanent_province_modifier = {
				name = dye_of_europe
				duration = -1
			}
		}
	}
}


############
#Cloth
###########

# New Draperies
country_event = {
	id = anb_price.8
	title = anb_price.8.t
	desc = anb_price.8.d
	picture = TRADEGOODS_eventPicture

	fire_only_once = yes
	
	major = yes

	trigger = {
		dip_tech = 11 #1544
		cloth = 1
		NOT = { has_global_flag = new_draperies_happened }
	}
	mean_time_to_happen = {
		months = 1
	}
	
	
	option = {
		name = anb_price.8.a
		change_price = {
			trade_goods = cloth
			key = NEW_DRAPERIES
			value = 0.20
			duration = -1
		}
		change_price = {
			trade_goods = wool
			key = NEW_DRAPERIES
			value = -0.20
			duration = -1
		}
		hidden_effect = { set_global_flag = new_draperies_happened }
	}
}

# Uniform Regulations
country_event = {
	id = anb_price.9
	title = anb_price.9.t
	desc = anb_price.9.d
	picture = TRADEGOODS_eventPicture

	fire_only_once = yes
	
	major = yes

	trigger = {
		mil_tech = 21 #1674
		NOT = { has_global_flag = regulated_uniforms_happened }
	}
	mean_time_to_happen = {
		months = 1
	}
	
	
	option = {
		name = anb_price.9.a
		change_price = {
			trade_goods = cloth
			key = REGULATED_UNIFORMS
			value = 0.15
			duration = -1
		}
		change_price = {
			trade_goods = wool
			key = REGULATED_UNIFORMS
			value = 0.1
			duration = -1
		}
		change_price = {
			trade_goods = dyes
			key = REGULATED_UNIFORMS
			value = 0.25
			duration = -1
		}
		hidden_effect = { set_global_flag = regulated_uniforms_happened }
	}
}

#######################
###Fur
#######################

# Depletion of the Cannorian Beaver
country_event = {
	id = anb_price.10
	title = anb_price.10.t
	desc = anb_price.10.d
	picture = TRADE_GOODS_FURS_FISH_AND_SALT_eventPicture

	fire_only_once = yes
	
	major = yes

	trigger = {
		owns = 221 #Gaweton
		capital_scope = { continent = europe }
		NOT = { has_global_flag = depleted_beaver_happened }
		is_year = 1570
	}
	mean_time_to_happen = {
		months = 3
	}
	
	
	option = {
		name = anb_price.10.a
		change_price = {
			trade_goods = fur
			key = DEPLETION_OF_CANNORIAN_BEAVER
			value = 0.5
			duration = -1
		}
		add_years_of_income = 0.35
		hidden_effect = { set_global_flag = depleted_beaver_happened }
	}
}


# Felt Hats
country_event = {
	id = anb_price.11
	title = anb_price.11.t
	desc = anb_price.11.d
	picture = TRADE_GOODS_FURS_FISH_AND_SALT_eventPicture

	fire_only_once = yes
	
	major = yes

	trigger = {
		OR = {
			capital_scope = { continent = europe }
			is_colonial_nation = yes
		}
		OR = {
			any_owned_province = {
				trade_goods = fur
				continent = north_america
			}
			any_owned_province = {
				trade_goods = fur
				continent = new_world
			}
		}
		NOT = { has_global_flag = felt_hats_happened }
	}
	mean_time_to_happen = {
		months = 3
	}
	
	
	option = {
		name = anb_price.11.a
		change_price = {
			trade_goods = fur
			key = FELT_HATS
			value = 0.375
			duration = -1
		}
		hidden_effect = { set_global_flag = felt_hats_happened }
	}
}

# Esmari Fashion
country_event = {
	id = anb_price.43
	title = anb_price.43.t
	desc = anb_price.43.d
	picture = TRADE_GOODS_FURS_FISH_AND_SALT_eventPicture

	fire_only_once = yes
	
	major = yes

	trigger = {
		capital_scope = { continent = europe }
		
		cloth = 5
		calc_true_if = {
			esmaria_region = { type = all is_prosperous = yes }
			amount = 20
		}
		NOT = { has_global_flag = esmari_fashion_happened }
	}
	mean_time_to_happen = {
		months = 3
	}
	
	
	option = {
		name = anb_price.43.a
		change_price = {
			trade_goods = cloth
			key = ESMARI_FASHION
			value = 0.25
			duration = -1
		}
		add_years_of_income = 0.35
		add_dip_power = 100
		hidden_effect = { set_global_flag = esmari_fashion_happened }
	}
}

#################
###Naval supplies
################

# Permanent Navies
country_event = {
	id = anb_price.12
	title = anb_price.12.t
	desc = anb_price.12.d
	picture = TRADEGOODS_eventPicture

	fire_only_once = yes
	
	major = yes

	trigger = {
		dip_tech = 22
		num_of_ports = 3
		NOT = { has_global_flag = permanent_navies_happened }
	}
	mean_time_to_happen = {
		months = 1
	}
	
	
	option = {
		name = anb_price.12.a
		change_price = {
			trade_goods = naval_supplies
			key = PERMANENT_NAVIES
			value = 0.5
			duration = -1
		}
		change_price = {
			trade_goods = glass
			key = PERMANENT_NAVIES
			value = 0.15
			duration = -1
		}
		change_price = {
			trade_goods = livestock
			key = PERMANENT_NAVIES
			value = 0.10
			duration = -1
		}
		hidden_effect = { set_global_flag = permanent_navies_happened }
	}
}


###############
#### Bronzes
###############

# Bronze Cannons
country_event = {
	id = anb_price.13
	title = anb_price.13.t
	desc = anb_price.13.d
	picture = TRADE_GOODS_METALS_AND_MINING_EQUIPENT_eventPicture

	fire_only_once = yes
	
	major = yes

	trigger = {
		mil_tech = 7 #1492
		copper = 1
		NOT = { has_global_flag = bronze_cannons_happened }
	}
	mean_time_to_happen = {
		months = 1
	}
	
	
	option = {
		name = anb_price.13.a
		change_price = {
			trade_goods = copper
			key = BRONZE_CANNONS
			value = 0.5
			duration = -1
		}
		hidden_effect = { set_global_flag = bronze_cannons_happened }
	}
}

################
### Sugar
################

##Popularization of sugar
country_event = {
	id = anb_price.14
	title = anb_price.14.t
	desc = anb_price.14.d
	picture = TRADE_GOODS_PLANTATION_GOODS_IN_WAREHOUSE_eventPicture

	fire_only_once = yes
	
	major = yes

	trigger = {
		OR = {
			capital_scope = { continent = europe }
			AND = {
				any_owned_province = { continent = europe }
				dip_tech = 25
			}
		}
		sugar = 5
		dip_tech = 20 #1661
		OR = {
			trading_part = {
				trade_goods = cocoa
				value = 0.05
			}
			trading_part = {
				trade_goods = tea
				value = 0.05
			}
			trading_part = {
				trade_goods = coffee
				value = 0.05
			}
		}
		NOT = { has_global_flag = popularization_of_sugar_happened }
	}
	mean_time_to_happen = {
		months = 1
	}
	
	
	option = {
		name = anb_price.14.a
		change_price = {
			trade_goods = sugar
			key = POPULARIZATION_OF_SUGAR
			value = 0.5
			duration = -1
		}
		hidden_effect = { set_global_flag = popularization_of_sugar_happened }
	}
}

##################
### Silk
#################
# Popularization of Silk Fabrics
country_event = {
	id = anb_price.15
	title = anb_price.15.t
	desc = anb_price.15.d
	picture = TRADEGOODS_eventPicture

	fire_only_once = yes
	
	major = yes

	trigger = {
		capital_scope = { continent = europe }
		dip_tech = 18 #1635
		OR = {
			1361 = { #Gulf of Rahen
				trade_share = {
					country = ROOT
					share = 10
				}
			}
			4485 = { # Middle Rahen
				trade_share = {
					country = ROOT
					share = 10
				}
			}
		}
		NOT = { has_global_flag = popular_silk_happened }
	}
	mean_time_to_happen = {
		months = 1
	}
	
	
	option = {
		name = anb_price.15.a
		change_price = {
			trade_goods = silk
			key = POPULAR_SILK_FABRICS
			value = 0.25
			duration = -1
		}
		hidden_effect = { set_global_flag = popular_silk_happened }
	}
}

#Mass production of Silk
country_event = {
	id = anb_price.37
	title = anb_price.37.t
	desc = anb_price.37.d
	picture = TRADEGOODS_eventPicture

	fire_only_once = yes
	
	major = yes

	trigger = {
		capital_scope = { continent = asia }
		has_institution = manufactories
		num_of_owned_provinces_with = {
			value = 5
			trade_goods = silk
			continent = asia
		}
		had_global_flag = {
			flag = popular_silk_happened
			days = 18250
		}
		NOT = { has_global_flag = mass_silk_production_happened }
	}
	mean_time_to_happen = {
		months = 1
	}
	
	
	option = {
		name = anb_price.37.a
		change_price = {
			trade_goods = silk
			key = MASS_SILK_PRODUCTION
			value = -0.5
			duration = -1
		}
		hidden_effect = { set_global_flag = mass_silk_production_happened }
	}
}

################
### Tropical Wood
###############

# Development of Veneering
country_event = {
	id = anb_price.16
	title = anb_price.16.t
	desc = anb_price.16.d
	picture = TRADEGOODS_eventPicture

	fire_only_once = yes
	
	major = yes
	mean_time_to_happen = {
		months = 60
	}

	trigger = {
		OR = {
			capital_scope = { superregion = deepwoods_superregion }
			AND = {
				tag = I13
				num_of_owned_provinces_with = {
					superregion = deepwoods_superregion
					value = 10
				}
			}
		}
		is_year = 1570
		OR = {
			current_age = age_of_reformation #Not before this
			current_age = age_of_absolutism
			current_age = age_of_revolutions
		}
		tropical_wood = 15
		NOT = { has_global_flag = veneering_happened }
	}
	
	option = {
		name = anb_price.16.a
		change_price = {
			trade_goods = tropical_wood
			key = VENEERING
			value = 0.5
			duration = -1
		}
		hidden_effect = { set_global_flag = veneering_happened }
	}
}


#######################
#### Iron
#######################

# Development of Ironworking
country_event = {
	id = anb_price.17
	title = anb_price.17.t
	desc = anb_price.17.d
	picture = TRADE_GOODS_METALS_AND_MINING_EQUIPENT_eventPicture

	fire_only_once = yes
	
	major = yes

	trigger = {
		mil_tech = 18 #1635
		iron = 1
		NOT = { has_global_flag = iron_working_happened }
	}
	mean_time_to_happen = {
		months = 1
	}
	
	
	option = {
		name = anb_price.17.a
		change_price = {
			trade_goods = iron
			key = IRON_WORKING
			value = 0.5
			duration = -1
		}
		change_price = {
			trade_goods = copper
			key = IRON_WORKING
			value = -0.35
			duration = -1
		}
		hidden_effect = { set_global_flag = iron_working_happened }
	}
}

# Serpentspine Abundance
country_event = {
	id = anb_price.35
	title = anb_price.35.t
	desc = anb_price.35.d
	picture = TRADE_GOODS_METALS_AND_MINING_EQUIPENT_eventPicture

	fire_only_once = yes
	
	major = yes

	trigger = {
		capital_scope = { continent = serpentspine }
		iron = 5
		copper = 5
		calc_true_if = {
			OR = {
				serpentspine = { type = all trade_goods = iron }
				serpentspine = { type = all trade_goods = copper }
			}
			amount = 30
		}
		NOT = { has_global_flag = serpentspine_abundance_happened }
	}
	mean_time_to_happen = {
		months = 1
	}
	
	
	option = {
		name = anb_price.35.a
		change_price = {
			trade_goods = iron
			key = SERPENTSPINE_ABUNDANCE
			value = -0.35
			duration = -1
		}
		change_price = {
			trade_goods = copper
			key = SERPENTSPINE_ABUNDANCE
			value = -0.35
			duration = -1
		}
		add_years_of_income = 1
		add_dip_power = 100
		hidden_effect = { set_global_flag = serpentspine_abundance_happened }
	}
}

# Artificiers Inventions
country_event = {
	id = anb_price.36
	title = anb_price.36.t
	desc = anb_price.36.d
	picture = TRADE_GOODS_METALS_AND_MINING_EQUIPENT_eventPicture
	goto = artificier_city

	fire_only_once = yes
	
	major = yes

	trigger = {
		has_reform = technocracy_republic_reform
		current_age = age_of_revolutions
		any_owned_province = {
			development = 30
			has_building = university
			is_state = yes
			is_city = yes
			province_without_special_goods_produced_trigger = yes
		}
		NOT = { has_global_flag = artificiers_inventions_happened }
	}
	mean_time_to_happen = {
		years = 10
	}
	
	immediate = {
		hidden_effect = {
			random_owned_province = {
				limit = {
					development = 30
					is_state = yes
					is_city = yes
					has_building = university
					province_without_special_goods_produced_trigger = yes
				}
				save_event_target_as = artificier_city
			}
			random_owned_province = {
				limit = {
					development = 40
					is_state = yes
					is_city = yes
					has_building = university
					province_without_special_goods_produced_trigger = yes
				}
				save_event_target_as = artificier_city
			}
			random_owned_province = {
				limit = {
					development = 50
					is_state = yes
					is_city = yes
					has_building = university
					province_without_special_goods_produced_trigger = yes
				}
				save_event_target_as = artificier_city
			}
			random_owned_province = {
				limit = {
					development = 60
					is_state = yes
					is_city = yes
					has_building = university
					province_without_special_goods_produced_trigger = yes
				}
				save_event_target_as = artificier_city
			}
			random_owned_province = {
				limit = {
					development = 60
					is_capital = yes
					is_state = yes
					is_city = yes
					has_building = university
					province_without_special_goods_produced_trigger = yes
				}
				save_event_target_as = artificier_city
			}
		}
	}
	
	option = {
		name = anb_price.36.a
		event_target:artificier_city = {
			add_permanent_province_modifier = {
				name = artificier_city
				duration = -1
			}
		}
		add_innovativeness_small_effect = yes
		change_price = {
			trade_goods = iron
			key = ARTIFICIERS_INVENTIONS
			value = 0.20
			duration = -1
		}
		change_price = {
			trade_goods = copper
			key = ARTIFICIERS_INVENTIONS
			value = 0.20
			duration = -1
		}
		change_price = {
			trade_goods = glass
			key = ARTIFICIERS_INVENTIONS
			value = 0.20
			duration = -1
		}
		change_price = {
			trade_goods = gems
			key = ARTIFICIERS_INVENTIONS
			value = 0.20
			duration = -1
		}
		add_prestige = 20
		hidden_effect = { set_global_flag = artificiers_inventions_happened }
	}
}


####################
### Cocoa
####################

# Hot Chocolate
country_event = {
	id = anb_price.18
	title = anb_price.18.t
	desc = anb_price.18.d
	picture = TRADE_GOODS_PLANTATION_GOODS_IN_WAREHOUSE_eventPicture

	fire_only_once = yes
	
	major = yes

	trigger = {
		dip_tech = 16 #1609
		any_subject_country = {
			is_colonial_nation = yes
			OR = {
				capital_scope = { continent = north_america }
				capital_scope = { continent = south_america }
				capital_scope = { continent = new_world }
			}
			cocoa = 5
			sugar = 1
		}
		NOT = { has_global_flag = hot_chocolate_happened }
	}
	mean_time_to_happen = {
		months = 1
	}
	
	
	option = {
		name = anb_price.18.a
		change_price = {
			trade_goods = cocoa
			key = HOT_CHOCOLATE
			value = 0.35
			duration = -1
		}
		hidden_effect = { set_global_flag = hot_chocolate_happened }
	}
}

##############
### Tobacco
##############
# Popularization of Tobacco
country_event = {
	id = anb_price.19
	title = anb_price.19.t
	desc = anb_price.19.d
	picture = TRADE_GOODS_PLANTATION_GOODS_IN_WAREHOUSE_eventPicture

	fire_only_once = yes
	
	major = yes

	trigger = {
		dip_tech = 16 #1609
		NOT = { has_global_flag = popularization_of_tobacco_happened }
		any_subject_country = {
			is_colonial_nation = yes
			OR = {
				capital_scope = { continent = north_america }
				capital_scope = { continent = south_america }
				capital_scope = { continent = new_world }
			}
			tobacco = 4
		}
	}
	mean_time_to_happen = {
		months = 1
	}
	
	
	option = {
		name = anb_price.19.a
		change_price = {
			trade_goods = tobacco
			key = POPULARIZATION_OF_TOBACCO
			value = 0.5
			duration = -1
		}
		hidden_effect = { set_global_flag = popularization_of_tobacco_happened }
	}
}

###################
### PAper
###################
# Explosion of Early Modern Printing

country_event = {
	id = anb_price.20
	title = anb_price.20.t
	desc = anb_price.20.d
	picture = {
		trigger = { NOT = { has_dlc = "Rights of Man" } }
		picture = TRADEGOODS_eventPicture
	}
	picture = {
		trigger = { has_dlc = "Rights of Man" }
		picture = PRINTING_PRESS_eventPicture
	}
	goto = bookmarket_here

	fire_only_once = yes
	
	major = yes

	trigger = {
		has_institution = printing_press
		any_owned_province = {
			has_province_modifier = birthplace_of_printing_press
		}
		NOT = { has_global_flag = printing_paper_prices_rise }
	}
	
	mean_time_to_happen = {
		months = 1
	}
	
	immediate = {
		hidden_effect = {
			random_owned_province = {
				limit = {
					has_province_modifier = birthplace_of_printing_press
				}
				save_event_target_as = bookmarket_here #Used in localization
			}
		}
		hidden_effect = { set_global_flag = printing_paper_prices_rise }
	}
	
	#No further bonuses as this triggers for the same place that already got the institution birth bonuses.
	
	option = {
		name = anb_price.20.a
		ai_chance = {
			factor = 100
		}
		trigger = {
			event_target:bookmarket_here = {
				NOT = { trade_goods = paper }
				province_without_special_goods_produced_trigger = yes #Don't offer if true.
			}
		}
		add_innovativeness_small_effect = yes
		event_target:bookmarket_here = {
			if = {
				limit = { NOT = { trade_goods = paper } }
				change_trade_goods = paper
			}
		}
		change_price = {
			trade_goods = paper
			key = INCREASED_PRINTING
			value = 0.25
			duration = -1
		}
	}
	option = {
		name = anb_price.20.b
		ai_chance = {
			factor = 1 #Practically only picked if option A is unavailable
		}
		add_innovativeness_small_effect = yes
		event_target:bookmarket_here = {
			add_base_production = 2
		}
		change_price = {
			trade_goods = paper
			key = INCREASED_PRINTING
			value = 0.25
			duration = -1
		}
	}
}
#Beater shit
country_event = {
	id = anb_price.21
	title = anb_price.21.t
	desc = anb_price.21.d
	picture = {
		trigger = { NOT = { has_dlc = "Rights of Man" } }
		picture = TRADEGOODS_eventPicture
	}
	picture = {
		trigger = { has_dlc = "Rights of Man" }
		picture = PRINTING_PRESS_eventPicture
	}
	goto = hollender_beater_province

	fire_only_once = yes
	
	major = yes

	trigger = {
		has_institution = manufactories
		any_owned_province = {
			province_without_special_goods_produced_trigger = yes
			is_state = yes
			OR = { #Somewhere reasonable for windmills 
				has_building = workshop
				has_building = counting_house
				base_production = 6
				has_port = yes
			}
			OR = {
				trade_goods = cloth #Lump
				trade_goods = naval_supplies #Hemp
				trade_goods = wool #Lump
			}
			NOT = { has_building = textile }
			NOT = { has_building = wharf }
		}
		NOT = { has_global_flag = hollender_beater_flag }
	}
	
	mean_time_to_happen = {
		months = 1
	}
	
	immediate = {
		hidden_effect = {
			random_owned_province = {
				limit = {
					province_without_special_goods_produced_trigger = yes
					is_state = yes
					OR = { #Somewhere reasonable for windmills 
						has_building = workshop
						has_building = counting_house
						base_production = 6
						has_port = yes
					}
					OR = {
						trade_goods = cloth #Lump
						trade_goods = naval_supplies #Hemp
						trade_goods = wool #Lump
					}
					NOT = { has_building = textile }
					NOT = { has_building = wharf }
				}
				save_event_target_as = hollender_beater_province
			}
			random_owned_province = {
				limit = {
					province_without_special_goods_produced_trigger = yes
					is_state = yes
					num_free_building_slots = 1 #prefered but not required
					OR = { #Somewhere reasonable for windmills 
						has_building = workshop
						has_building = counting_house
						base_production = 6
						has_port = yes
					}
					OR = {
						trade_goods = cloth #Lump
						trade_goods = naval_supplies #Hemp
						trade_goods = wool #Lump
					}
					NOT = { has_building = textile }
					NOT = { has_building = wharf }
				}
				save_event_target_as = hollender_beater_province
			}
			random_owned_province = {
				limit = {
					province_without_special_goods_produced_trigger = yes
					is_state = yes
					num_free_building_slots = 1
					OR = { #Somewhere reasonable for windmills 
						has_building = workshop
						has_building = counting_house
						base_production = 6
						has_port = yes
					}
					OR = {
						trade_goods = cloth #Lump
						trade_goods = naval_supplies #Hemp
						trade_goods = wool #Lump
					}
					NOT = { has_building = textile }
					NOT = { has_building = wharf }
					base_production = 6
				}
				save_event_target_as = hollender_beater_province
			}
			random_owned_province = {
				limit = {
					province_without_special_goods_produced_trigger = yes
					is_state = yes
					num_free_building_slots = 1
					OR = { #Somewhere reasonable for windmills 
						has_building = workshop
						has_building = counting_house
						base_production = 6
						has_port = yes
					}
					OR = {
						trade_goods = cloth #Lump
						trade_goods = naval_supplies #Hemp
						trade_goods = wool #Lump
					}
					NOT = { has_building = textile }
					NOT = { has_building = wharf }
					base_production = 10
				}
				save_event_target_as = hollender_beater_province
			}
			random_owned_province = {
				limit = {
					province_without_special_goods_produced_trigger = yes
					is_state = yes
					num_free_building_slots = 1
					OR = { #Somewhere reasonable for windmills 
						has_building = workshop
						has_building = counting_house
						base_production = 6
						has_port = yes
					}
					OR = {
						trade_goods = cloth #Lump
						trade_goods = naval_supplies #Hemp
						trade_goods = wool #Lump
					}
					NOT = { has_building = textile }
					NOT = { has_building = wharf }
					base_production = 14
				}
				save_event_target_as = hollender_beater_province
			}
		}
	}
	
	option = {
		name = anb_price.21.a
		add_adm_power = 75
		event_target:hollender_beater_province = {
			change_trade_goods = paper
			if = {
				limit = { num_free_building_slots = 1 }
				add_building = mills
				else = {
					add_base_production = 4
				}
			}
		}
		change_price = {
			trade_goods = paper
			key = HOLLENDER_BEATER
			value = -0.5
			duration = -1
		}
		hidden_effect = { set_global_flag = hollender_beater_flag }
	}
}

# Growing Bureaucracies
country_event = {
	id = anb_price.22
	title = anb_price.22.t
	desc = anb_price.22.d
	picture = BIG_BOOK_eventPicture

	fire_only_once = yes
	
	major = yes

	trigger = {
		adm_tech = 6 #1479
		has_institution = feudalism
		OR = {
			num_of_cities = 50
			colony = 1 #1 Colonial Country
		}
		NOT = { government = tribal }
		OR = {
			colony = 1 #1 Colonial Country
			AND = {
				capital_scope = { continent = europe }
				any_owned_province = { NOT = { continent = europe } }
			}
			AND = {
				capital_scope = { continent = africa }
				any_owned_province = { NOT = { continent = africa } }
			}
			AND = {
				capital_scope = { continent = asia }
				any_owned_province = { NOT = { continent = asia } }
			}
		}
		NOT = { has_global_flag = paper_in_bureaucracies }
	}
	
	mean_time_to_happen = {
		months = 1
	}
	
	option = {
		name = anb_price.22.a
		change_price = {
			trade_goods = paper
			key = PAPER_IN_BUREAUCRACY
			value = 0.25
			duration = -1
		}
		hidden_effect = { set_global_flag = paper_in_bureaucracies }
	}
}

# Lending Libraries and Book Clubs
country_event = {
	id = anb_price.23
	title = anb_price.23.t
	desc = anb_price.23.d
	picture = BIG_BOOK_eventPicture
	goto = lending_libraries_here

	fire_only_once = yes
	
	major = yes

	trigger = {
		has_institution = enlightenment
		OR = {
			full_idea_group = innovativeness_ideas
			university = 5
		}
		NOT = { has_global_flag = popular_literacy }
	}
	
	immediate = {
		hidden_effect = {
			random_owned_province = {
				limit = { is_capital = yes }
				save_event_target_as = lending_libraries_here
			}
			random_owned_province = {
				limit = {
					is_state = yes
					has_building = university
				}
				save_event_target_as = lending_libraries_here
			}
			random_owned_province = {
				limit = {
					is_capital = no
					is_state = yes
					has_building = university
				}
				save_event_target_as = lending_libraries_here
			}
		}
	}
	
	mean_time_to_happen = {
		months = 1
	}
	
	option = {
		name = anb_price.23.a
		add_innovativeness_small_effect = yes
		event_target:lending_libraries_here = {
			if = {
				limit = {
					province_without_special_goods_produced_trigger = yes
				}
				if = {
					limit = { NOT = { trade_goods = paper } }
					change_trade_goods = paper
				}
				add_permanent_province_modifier = {
					name = "bookmarket_of_x"
					duration = -1
				}
			}
		}
		change_price = {
			trade_goods = paper
			key = LENDING_LIBRARIES
			value = 0.35
			duration = -1
		}
		if = {
			limit = {
				has_parliament = no
			}
			add_country_modifier = {
				name = "spread_of_enlightenment_ideals"
				duration = 3650
			}
		}
		hidden_effect = { set_global_flag = popular_literacy }
	}
}




#######################
### Gems
#######################

# Faceting
country_event = {
	id = anb_price.24
	title = anb_price.24.t
	desc = anb_price.24.d
	picture = TRADEGOODS_eventPicture
	goto = diamond_city

	fire_only_once = yes
	
	major = yes

	trigger = {
		has_institution = renaissance
		prestige = 50
		any_owned_province = {
			renaissance = 100
			OR = {
				trade_goods = glass
				trade_goods = gems
			}
			development = 15
			is_state = yes
			is_city = yes
			province_without_special_goods_produced_trigger = yes
		}
		NOT = { has_global_flag = faceting_happened }
	}
	
	mean_time_to_happen = {
		months = 1
	}
	
	immediate = {
		hidden_effect = {
			random_owned_province = {
				limit = {
					renaissance = 100
					OR = {
						trade_goods = glass
						trade_goods = gems
					}
					development = 15
					is_state = yes
					is_city = yes
					province_without_special_goods_produced_trigger = yes
				}
				save_event_target_as = diamond_city
			}
		}
	}
	
	option = {
		name = anb_price.24.a
		event_target:diamond_city = {
			if = {
				limit = {
					NOT = { trade_goods = gems }
				}
				change_trade_goods = gems
			}
			add_permanent_province_modifier = {
				name = diamond_district
				duration = -1
			}
		}
		change_price = {
			trade_goods = gems
			key = FACETING
			value = 0.25
			duration = -1
		}
		hidden_effect = { set_global_flag = faceting_happened }
	}
}

# Serpentspine Diamonds
country_event = {
	id = anb_price.25
	title = anb_price.25.t
	desc = anb_price.25.d
	picture = TRADEGOODS_eventPicture

	fire_only_once = yes
	
	major = yes

	trigger = {
		NOT = { current_age = age_of_discovery }
		primitives = no
		any_owned_province = {
			trade_goods = gems
			continent = serpentspine
		}
		calc_true_if = {
			serpentspine = { type = all trade_goods = gems }
			amount = 20
		}
		NOT = { has_global_flag = serpentspine_gems_happened }
	}
	
	mean_time_to_happen = {
		months = 1
	}
	
	option = {
		name = anb_price.25.a
		add_years_of_income = 2
		add_prestige = 20
		change_price = {
			trade_goods = gems
			key = SERPENTSPINE_DIAMONDS
			value = -0.5
			duration = -1
		}
		hidden_effect = { set_global_flag = serpentspine_gems_happened }
	}
}

#########################
#### Livestock
#########################

# Selective Breeding
country_event = {
	id = anb_price.27
	title = anb_price.27.t
	desc = anb_price.27.d
	picture = TRADEGOODS_eventPicture

	fire_only_once = yes
	
	major = yes

	trigger = {
		has_institution = enlightenment
		livestock = 5
		any_owned_province = {
			enlightenment = 100
			trade_goods = livestock
		}
		NOT = { has_global_flag = selective_breeding_happened }
	}
	
	mean_time_to_happen = {
		months = 1
	}
	
	option = {
		name = anb_price.27.a
		add_dip_power = 100
		add_innovativeness_small_effect = yes
		change_price = {
			trade_goods = livestock
			key = SELECTIVE_BREEDING
			value = 0.35
			duration = -1
		}
		change_price = {
			trade_goods = wool
			key = SELECTIVE_BREEDING
			value = 0.35
			duration = -1
		}
		random_owned_province = {
			limit = {
				enlightenment = 100
				trade_goods = livestock
			}
			add_base_production = 3
		}
		hidden_effect = { set_global_flag = selective_breeding_happened }
	}
}

################
### Glass
#################

# Improvements in Lensmaking
country_event = {
	id = anb_price.28
	title = anb_price.28.t
	desc = anb_price.28.d
	picture = TRADEGOODS_eventPicture

	fire_only_once = yes
	
	major = yes

	trigger = {
		dip_tech = 18 #1635
		has_institution = global_trade
		any_owned_province = {
			trade_goods = glass
			has_building = mills
		}
		NOT = { has_global_flag = development_of_optics }
	}
	
	mean_time_to_happen = {
		months = 1
	}
	
	option = {
		name = anb_price.28.a
		add_dip_power = 100
		add_innovativeness_small_effect = yes
		change_price = {
			trade_goods = glass
			key = MODERN_OPTICS
			value = 0.25
			duration = -1
		}
		hidden_effect = { set_global_flag = development_of_optics }
	}
}

# Flint Glass & Lead Crystal
country_event = {
	id = anb_price.29
	title = anb_price.29.t
	desc = anb_price.29.d
	picture = TRADEGOODS_eventPicture
	goto = glass_province

	fire_only_once = yes
	
	major = yes

	trigger = {
		dip_tech = 18
		has_institution = manufactories
		any_owned_province = {
			manufactories = 100
			is_state = yes
			is_capital = no
			OR = {
				has_building = workshop
				has_building = counting_house
			}
			province_without_special_goods_produced_trigger = yes
		}
		NOT = { has_global_flag = lead_crystal_happened }
	}
	
	immediate = {
		hidden_effect = {
			random_owned_province = {
				limit = {
					manufactories = 100
					is_state = yes
					is_capital = no
					OR = {
						has_building = workshop
						has_building = counting_house
					}
					province_without_special_goods_produced_trigger = yes
				}
				save_event_target_as = glass_province
			}
		}
	}
	
	mean_time_to_happen = {
		months = 1
	}
	
	option = {
		name = anb_price.29.a
		add_years_of_income = 1
		event_target:glass_province = {
			change_trade_goods = glass
			add_building = mills
			add_base_production = 2
		}
		change_price = {
			trade_goods = glass
			key = LEAD_CRYSTAL
			value = -0.5
			duration = -1
		}
		hidden_effect = { set_global_flag = lead_crystal_happened } #Checked by industrialization events for RB
	}
}

# Potion for Adventurer
country_event = {
	id = anb_price.46
	title = anb_price.46.t
	desc = anb_price.46.d
	picture = TRADEGOODS_eventPicture

	fire_only_once = yes
	
	major = yes

	trigger = {
		capital_scope = { superregion = western_cannor_superregion }
		is_year = 1470
		glass = 1
		NOT = { has_global_flag = potion_for_adventurers }
	}
	
	mean_time_to_happen = {
		months = 1
	}
	
	option = {
		name = anb_price.46.a
		add_dip_power = 100
		add_innovativeness_small_effect = yes
		change_price = {
			trade_goods = glass
			key = POTION_ADVENTURER
			value = 0.35
			duration = -1
		}
		hidden_effect = { set_global_flag = potion_for_adventurers }
	}
}

#####################
#### Coal
####################

# Greater Availability of Coal
country_event = {
	id = anb_price.30
	title = anb_price.30.t
	desc = anb_price.30.d
	picture = TRADE_GOODS_METALS_AND_MINING_EQUIPENT_eventPicture
	goto = potential_furnace

	fire_only_once = yes
	
	major = yes

	trigger = {
		#has_dlc = "Rule Britannia"
		has_country_flag = watt_steam_engine_flag #Set by Industrialization Events
		has_country_flag = coke_blast_furnaces_flag #Set by Industrialization Events.
		has_institution = enlightenment
		any_owned_province = {
			trade_goods = coal
			has_building = furnace
		}
		coal = 5
		NOT = { has_global_flag = steam_engine_happened }
	}
	
	immediate = {
		hidden_effect = {
			random_owned_province = {
				limit = {
					trade_goods = coal
					has_building = furnace
				}
				save_event_target_as = coal_province
			}
			if = {
				limit = {
					any_owned_province = {
						trade_goods = coal
						NOT = { has_building = furnace }
					}
				}
				random_owned_province = {
					limit = {
						trade_goods = coal
						NOT = { has_building = furnace }
					}
					save_event_target_as = potential_furnace
				}
			}
		}
	}
	
	mean_time_to_happen = {
		months = 1
	}
	
	option = {
		name = anb_price.30.a
		add_years_of_income = 1
		add_dip_power = 50
		if = {
			limit = {
				has_saved_event_target = potential_furnace
			}
			event_target:coal_province = {
				add_base_production = 2
			}
			event_target:potential_furnace = {
				add_building = furnace
			}
		}
		else = {
			event_target:coal_province = {
				add_base_production = 6
			}
		}
		change_price = {
			trade_goods = coal
			key = IMPROVED_COAL_MINING
			value = -0.30
			duration = -1
		}
		hidden_effect = { set_global_flag = steam_engine_happened }
	}
}

###################
### Coffee
##################

# Coffee is good for mage
country_event = {
	id = anb_price.31
	title = anb_price.31.t
	desc = anb_price.31.d
	picture = TRADE_GOODS_PLANTATION_GOODS_IN_WAREHOUSE_eventPicture

	fire_only_once = yes
	
	major = yes

	trigger = {
		capital_scope = { continent = europe }
		any_subject_country = {
			is_colonial_nation = yes
			coffee = 4
		}
		NOT = { current_age = age_of_revolutions }
		NOT = { has_global_flag = mage_coffee_happened }
	}
	
	mean_time_to_happen = {
		months = 1
	}

	option = {
		name = anb_price.31.a
		change_price = {
			trade_goods = coffee
			key = MAGIC_BEVERAGE
			value = 0.5
			duration = -1
		}
		add_years_of_income  = 0.25
		add_prestige = 20
		hidden_effect = { set_global_flag = mage_coffee_happened }
	}
}


# Coffee side effect
country_event = {
	id = anb_price.32
	title = anb_price.32.t
	desc = anb_price.32.d
	picture = TRADE_GOODS_PLANTATION_GOODS_IN_WAREHOUSE_eventPicture

	fire_only_once = yes
	
	major = yes

	trigger = {
		has_global_flag = mage_coffee_happened
		capital_scope = { continent = europe }
		current_age = age_of_absolutism
		NOT = { has_global_flag = bad_side_effect_happened }
	}
	
	mean_time_to_happen = {
		years = 40
	}

	option = {
		name = anb_price.32.a
		change_price = {
			trade_goods = coffee
			key = BAD_SIDEEFFECT
			value = -0.6
			duration = -1
		}
		add_dip_power = 100
		hidden_effect = { set_global_flag = bad_side_effect_happened }
	}
}

####################
#### Cotton
###################


# Cotton Imports
country_event = {
	id = anb_price.33
	title = anb_price.33.t
	desc = anb_price.33.d
	picture = TRADE_GOODS_PLANTATION_GOODS_IN_WAREHOUSE_eventPicture

	
	major = yes

	trigger = {
		is_great_power = yes
		capital_scope = { continent = europe }
		any_owned_province = {
			trade_goods = wool
			continent = europe
		} 
		OR = {
			1361 = { #Gulf of Rahen
				trade_share = {
					country = ROOT
					share = 10
				}
			}
			4485 = { #Middle Rahen
				trade_share = {
					country = ROOT
					share = 10
				}
			}
			4460 = { #Nadimraj
				trade_share = {
					country = ROOT
					share = 10
				}
			}
			4434 = { #Rakhadesh
				trade_share = {
					country = ROOT
					share = 10
				}
			}
		}
		NOT = { has_country_flag = cotton_imports }
		NOT = { has_global_flag = cotton_imports_global }
	}
	
	mean_time_to_happen = {
		months = 1
	}

	immediate = {
		hidden_effect = { set_global_flag = cotton_imports_global }
	}
	
	option = {
		name = anb_price.33.a
		ai_chance = {
			factor = 50
			modifier = {
				factor = 1.5
				cotton = 6
			}
			modifier = {
				factor = 1.5
				cotton = 12
			}
			modifier = {
				factor = 1.5
				cotton = 18
			}
		}
		change_price = {
			trade_goods = wool
			key = COTTON_IMPORTS
			value = -0.10
			duration = -1
		}
		change_price = {
			trade_goods = cotton
			key = COTTON_IMPORTS
			value = 0.20
			duration = -1
		}
		add_mercantilism = -2
	}
	option = {
		name = anb_price.33.b
		ai_chance = {
			factor = 50
			modifier = {
				factor = 1.5
				wool = 6
			}
			modifier = {
				factor = 1.5
				wool = 12
			}
			modifier = {
				factor = 1.5
				wool = 18
			}
		}
		hidden_effect = { set_country_flag = cotton_imports }
		1361 = { #Gulf of Rahen
			add_trade_modifier = {
				who = root
				duration = -1
				power = -10
				key = COTTON_IMPORTS_BANNED
			}
		}
		4485 = { #Middle Rahen
			add_trade_modifier = {
				who = root
				duration = -1
				power = -10
				key = COTTON_IMPORTS_BANNED
			}
		}
		4460 = { #Nadimraj
			add_trade_modifier = {
				who = root
				duration = -1
				power = -10
				key = COTTON_IMPORTS_BANNED
			}
		}
		4435 = { #Rakhadesh
			add_trade_modifier = {
				who = root
				duration = -1
				power = -10
				key = COTTON_IMPORTS_BANNED
			}
		}
	}
}

####################
#### Wine
###################


### The Golden Age of Wine. Wine Price 2.5 -> 3.5
country_event = {
	id = anb_price.7
	title = anb_price.7.t
	desc = anb_price.7.d
	picture = HARBOUR_eventPicture
	
	fire_only_once = yes
	major = yes
	is_triggered_only = yes

	
	trigger = {
	    always = yes
	}
	
	option = {
		name = anb_price.7.a
		ai_chance = {factor = 100}
		
		change_price = {
			trade_goods = wine
			key = golden_age_of_wine
			
			value = 0.4
			duration = -1
		}
	}
}	

# Cork Bottle Stoppers
country_event = {
	id = anb_price.34
	title = anb_price.34.t
	desc = anb_price.34.d
	picture = TRADEGOODS_eventPicture

	fire_only_once = yes
	
	major = yes

	trigger = {
		dip_tech = 20 #1661
		wine = 1
		glass = 1
		NOT = { has_global_flag = wine_corks_happened }
	}
	mean_time_to_happen = {
		months = 1
	}
	
	
	option = {
		name = anb_price.34.a
		change_price = {
			trade_goods = wine
			key = WINE_CORKS
			value = 0.25
			duration = -1
		}
		change_price = {
			trade_goods = glass
			key = WINE_CORKS
			value = 0.15
			duration = -1
		}
		hidden_effect = { set_global_flag = wine_corks_happened }
	}
}

####################
#### Chinaware
###################

# Popularity of Porcelain
country_event = {
	id = anb_price.38
	title = anb_price.38.t
	desc = anb_price.38.d
	picture = TRADEGOODS_eventPicture

	fire_only_once = yes
	
	major = yes

	trigger = {
		is_year = 1580
		chinaware = 1
		capital_scope = { continent = asia }
		NOT = { has_global_flag = porcelain_popularity_happened }
		4247 = { #Tree of Stone
			NOT = { strongest_trade_power = { OR = { has_country_modifier = orcish_administration has_country_modifier = goblin_administration } } }
		}
		4124 = { #Seghdihr
			NOT = { strongest_trade_power = { OR = { has_country_modifier = orcish_administration has_country_modifier = goblin_administration } } }
		}
		2931 = { #Er-Natvir
					NOT = { strongest_trade_power = { OR = { has_country_modifier = orcish_administration has_country_modifier = goblin_administration } } }
				}
		OR = {
			OR = {
				2868 = { #West Dwarovar
					NOT = { strongest_trade_power = { OR = { has_country_modifier = orcish_administration has_country_modifier = goblin_administration } } }
				}
				has_global_flag = marrhold_canal
			}
			4100 = { #Serpentreach
				NOT = { strongest_trade_power = { OR = { has_country_modifier = orcish_administration has_country_modifier = goblin_administration } } }
			}
		}
	}
	mean_time_to_happen = {
		months = 1
	}
	
	
	option = {
		name = anb_price.38.a
		change_price = {
			trade_goods = chinaware
			key = PORCELAIN_POPULARITY
			value = 0.5
			duration = -1
		}
		add_years_of_income = 1
		add_prestige = 20
		hidden_effect = { set_global_flag = porcelain_popularity_happened }
	}
}

# Porcelain Soul Jar
country_event = {
	id = anb_price.39
	title = anb_price.39.t
	desc = anb_price.39.d
	picture = TRADEGOODS_eventPicture

	fire_only_once = yes
	
	major = yes

	trigger = {
		current_age = age_of_absolutism
		capital_scope = { continent = europe }
		has_global_flag = porcelain_popularity_happened
		NOT = { has_global_flag = porcelain_soul_jar_happened }
	}
	mean_time_to_happen = {
		years = 10
	}
	
	
	option = {
		name = anb_price.39.a
		change_price = {
			trade_goods = chinaware
			key = PORCELAIN_SOUL_JAR
			value = 0.25
			duration = -1
		}
		add_prestige = 20
		hidden_effect = { set_global_flag = porcelain_soul_jar_happened }
	}
}

# Porcelain in Escann
country_event = {
	id = anb_price.40
	title = anb_price.40.t
	desc = anb_price.40.d
	picture = TRADEGOODS_eventPicture

	fire_only_once = yes
	
	major = yes

	trigger = {
		current_age = age_of_revolutions
		capital_scope = { superregion = escann_superregion }
		any_owned_province = {
			has_terrain = city_terrain
			superregion = escann_superregion
			NOT = { 
				trade_goods = precursor_relics
				trade_goods = damestear
				trade_goods = gems
				trade_goods = gold
			}
		}
		had_global_flag = {
			flag = porcelain_popularity_happened
			days = 18250
		}
		NOT = { has_country_modifier = orcish_administration }
		NOT = { has_country_modifier = goblin_administration }
		NOT = { has_global_flag = porcelain_in_escann_happened }
	}
	mean_time_to_happen = {
		years = 1
	}
	
	option = {
		name = anb_price.40.a
		random_owned_province = {
			limit = {
				superregion = escann_superregion
				has_terrain = city_terrain
				NOT = { 
					trade_goods = precursor_relics
					trade_goods = damestear
					trade_goods = gems
					trade_goods = gold
				}
			}
			change_trade_goods = chinaware
			add_base_production = 4
			add_base_tax = 2
		}
		change_price = {
			trade_goods = chinaware
			key = PORCELAIN_IN_ESCANN
			value = -0.5
			duration = -1
		}
		add_prestige = 20
		add_years_of_income = 1
		hidden_effect = { set_global_flag = porcelain_in_escann_happened }
	}
}

####################
#### Fungi
####################

# Fungi Remedy
country_event = {
	id = anb_price.41
	title = anb_price.41.t
	desc = anb_price.41.d
	picture = TRADEGOODS_eventPicture

	fire_only_once = yes
	
	major = yes

	trigger = {
		capital_scope = { continent = serpentspine }
		is_year = 1790
		fungi = 15
		NOT = { has_global_flag = fungi_remedy_happened }
	}
	mean_time_to_happen = {
		years = 1
	}
	
	option = {
		name = anb_price.41.a
		change_price = {
			trade_goods = fungi
			key = FUNGI_REMEDIES
			value = 0.5
			duration = -1
		}
		add_years_of_income = 1
		add_adm_power = 100
		hidden_effect = { set_global_flag = fungi_remedy_happened }
	}
}

####################
#### Mithril
####################

# Mithril Abundance
country_event = {
	id = anb_price.42
	title = anb_price.42.t
	desc = anb_price.42.d
	picture = TRADEGOODS_eventPicture

	fire_only_once = yes
	
	major = yes

	trigger = {
		capital_scope = { continent = serpentspine }
		mithril = 5
		calc_true_if = {
			serpentspine = { type = all trade_goods = mithril }
			amount = 15
		}
		NOT = { has_global_flag = mithril_abundance_happened }
	}
	mean_time_to_happen = {
		months = 1
	}
	
	option = {
		name = anb_price.42.a
		change_price = {
			trade_goods = mithril
			key = MITHRIL_ABUNDANCE
			value = -0.2
			duration = -1
		}
		hidden_effect = { set_global_flag = mithril_abundance_happened }
	}
}

####################
#### Grain
####################


# Small countries torn by war
country_event = {
	id = anb_price.44
	title = anb_price.44.t
	desc = anb_price.44.d
	picture = TRADEGOODS_eventPicture

	fire_only_once = yes
	
	major = yes

	trigger = {
		small_country_region = {
			has_discovered = ROOT
		}
		calc_true_if = {
			small_country_region = {
				type = all
				devastation = 50
			}
			amount = 8
		}
		NOT = { has_global_flag = small_country_devastation_happened }
	}
	mean_time_to_happen = {
		days = 1
	}
	
	option = {
		name = anb_price.44.a
		change_price = {
			trade_goods = grain
			key = SMALL_COUNTRY_DEVASTATION
			value = 0.3
			duration = 18250
		}
		hidden_effect = { set_global_flag = small_country_devastation_happened }
	}
}


##################
#### Tea
##################
# Of Tea and Sugar
country_event = {
	id = anb_price.47
	title = anb_price.47.t
	desc = anb_price.47.d
	picture = TRADE_GOODS_PLANTATION_GOODS_IN_WAREHOUSE_eventPicture

	fire_only_once = yes
	
	major = yes

	trigger = {
		capital_scope = { continent = europe }
		dip_tech = 20 #1661
		OR = {
			any_subject_country = {
				is_colonial_nation = yes
				any_owned_province = {
					trade_goods = sugar
				}
			}
			any_owned_province = {
				trade_goods = sugar
				continent = new_world
			}
			any_owned_province = {
				trade_goods = sugar
				continent = north_america
			}
			any_owned_province = {
				trade_goods = sugar
				continent = south_america
			}
		}
		OR = {
			any_subject_country = {
				is_colonial_nation = yes
				any_owned_province = {
					trade_goods = tea
				}
			}
			any_owned_province = {
				trade_goods = tea
			}
		}
		NOT = { has_global_flag = tea_and_sugar_happened }
	}
	
	mean_time_to_happen = {
		months = 1
	}

	
	option = {
		name = anb_price.47.a
		change_price = {
			trade_goods = tea
			key = TEA_AND_SUGAR
			value = 0.25
			duration = -1
		}
		change_price = {
			trade_goods = sugar
			key = TEA_AND_SUGAR
			value = 0.25
			duration = -1
		}
		add_years_of_income  = 0.25
		add_prestige = 20
		hidden_effect = { set_global_flag = tea_and_sugar_happened }
	}
}

# Damerian Tea Culture
country_event = {
	id = anb_price.48
	title = anb_price.48.t
	desc = anb_price.48.d
	picture = TRADEGOODS_eventPicture

	fire_only_once = yes
	
	major = yes

	trigger = {
		has_institution = renaissance
		OR = {
			primary_culture = west_damerian
			primary_culture = east_damerian
		}
		prestige = 50
		NOT = { has_global_flag = damerian_tea_culture_happened }
	}
	mean_time_to_happen = {
		months = 1
	}
	
	option = {
		name = anb_price.48.a
		change_price = {
			trade_goods = tea
			key = DAMERIAN_TEA_CULTURE
			value = 0.5
			duration = -1
		}
		hidden_effect = { set_global_flag = damerian_tea_culture_happened }
	}
}

