namespace = ynn_events

# Ynn Urbanization
country_event = {
	id = ynn_events.0
	title = ynn_events.0.t
	desc = ynn_events.0.d
	picture = CITY_VIEW_eventPicture
	
	fire_only_once = yes
	major = yes
	
	trigger = {
		is_year = 1620
        OR = {
            AND = {
                has_dlc = "Mandate of Heaven"
                1139 = { is_prosperous = yes }
                1171 = { is_prosperous = yes }
                1191 = { is_prosperous = yes }
            }
            NOT = {
                has_dlc = "Mandate of Heaven"
				1139 = { devastation = 1 }
                1171 = { devastation = 1 }
                1191 = { devastation = 1 }
            }
        }
		OR = {
			AND = {
				has_dlc = "Rights of Man"
				is_great_power = yes
			}
			AND = {
				NOT = { has_dlc = "Rights of Man" }
				total_development = 300
			}
		}
		capital_scope = { superregion = ynn_superregion }
		has_institution = global_trade
	}

	mean_time_to_happen = {
		months = 1
	}
	
	# Hooray
	option = {
        name = ynn_events.0.a
		add_prestige = 10
		add_stability_or_adm_power = yes
		1139 = {
			remove_province_modifier = ynn_urban_decline
			add_center_of_trade_level = 1
			owner = {
				add_opinion = {
					who = ROOT
					modifier = opinion_grateful
				}
			}
		}
		1171 = {
			remove_province_modifier = ynn_urban_decline
			add_center_of_trade_level = 1
			owner = {
				add_opinion = {
					who = ROOT
					modifier = opinion_grateful
				}
			}
		}
		1191 = {
			remove_province_modifier = ynn_urban_decline
			add_center_of_trade_level = 1
			owner = {
				add_opinion = {
					who = ROOT
					modifier = opinion_grateful
				}
			}
		}
	}
}

country_event = {
	id = ynn_events.1
	title = ynn_events.1.t
	desc = ynn_events.1.d
	picture = GOOD_WITH_MONARCH_eventPicture
	
	is_triggered_only = yes
	major = yes
	
	option = {
		name = ynn_events.1.a
		if = {
			limit = { has_custom_ideas = no }
			country_event = { id = ideagroups.1 } #Swap Ideas
		}
		country_event = { id = ynn_events.5 days = 30 }
	}
}

country_event = {
	id = ynn_events.2
	title = ynn_events.2.t
	desc = {
		trigger = { NOT = { was_tag = G32 } }
	   desc = ynn_events.2.d1
	}
	desc = {
	   trigger = { was_tag = G32 }
	   desc = ynn_events.2.d2
	}
	
	picture = {
		trigger = { NOT = { was_tag = G32 } }
		picture = GOOD_WITH_MONARCH_eventPicture
	}
	picture = {
	   trigger = { was_tag = G32 }
		picture = REFORM_eventPicture
	}
	
	is_triggered_only = yes
	major = yes
	
	option = {
		trigger = {
			NOT = {
				was_tag = G32
			}
		}
		name = ynn_events.2.a
		if = {
			limit = { has_custom_ideas = no }
			country_event = { id = ideagroups.1 } #Swap Ideas
		}
		country_event = { id = ynn_events.5 days = 30 }
	}
	
	option = {
		trigger = {
			was_tag = G32
		}
		name = ynn_events.2.b
		if = {
			limit = { has_custom_ideas = no }
			country_event = { id = ideagroups.1 } #Swap Ideas
		}
		change_government = monarchy
		add_government_reform = feudalism_reform
		country_event = { id = ynn_events.5 days = 30 }
	}
}

country_event = {
	id = ynn_events.3
	title = ynn_events.3.t
	desc = ynn_events.3.d
	picture = GOOD_WITH_MONARCH_eventPicture
	
	is_triggered_only = yes
	major = yes
	
	option = {
		name = ynn_events.3.a
		if = {
			limit = { has_custom_ideas = no }
			country_event = { id = ideagroups.1 } #Swap Ideas
		}
		country_event = { id = ynn_events.5 days = 30 }
	}
}

country_event = {
	id = ynn_events.4
	title = ynn_events.4.t
	desc = ynn_events.4.d
	picture = GOOD_WITH_MONARCH_eventPicture
	
	is_triggered_only = yes
	major = yes
	
	option = {
		name = ynn_events.4.a
		if = {
			limit = { has_custom_ideas = no }
			country_event = { id = ideagroups.1 } #Swap Ideas
		}
		country_event = { id = ynn_events.5 days = 30 }
	}
}

country_event = {
	id = ynn_events.5
	title = ynn_events.5.t
	desc = ynn_events.5.desc
	picture = FORT_eventPicture
	
	is_triggered_only = yes
	
	option = {
		name = ynn_events.5.a
		
		ai_chance = {
			factor = 3
			modifier = {
				factor = 3
				OR = {
					capital = 1139
					capital = 1171
					capital = 1191
				}
			}
		}
	}
	
	option = {
		name = ynn_events.5.b
		
		trigger = { NOT = { capital = 1139 } }
		
		if = {
			limit = { NOT = { is_core = 1139 } }
			1139 = { add_core = ROOT }
		}
		
		if = {
			limit = { NOT = { owns = 1139 } }
			1139 = { cede_province = ROOT }
		}
		
		set_capital = 1139
		
		ai_chance = {
			factor = 1
			modifier = {
				factor = 3
				primary_culture = sarda
			}
		}
	}
	
	option = {
		name = ynn_events.5.c
		
		trigger = { NOT = { capital = 1171 } }
		
		if = {
			limit = { NOT = { is_core = 1171 } }
			1171 = { add_core = ROOT }
		}
		
		if = {
			limit = { NOT = { owns = 1171 } }
			1171 = { cede_province = ROOT }
		}
		
		set_capital = 1171
		
		ai_chance = {
			factor = 1
			modifier = {
				factor = 3
				primary_culture = dolindhan
			}
		}
	}
	
	option = {
		name = ynn_events.5.d
		
		trigger = { NOT = { capital = 1191 } }
		
		if = {
			limit = { NOT = { is_core = 1191 } }
			1191 = { add_core = ROOT }
		}
		
		if = {
			limit = { NOT = { owns = 1191 } }
			1191 = { cede_province = ROOT }
		}
		
		set_capital = 1191
		
		ai_chance = {
			factor = 1
			modifier = {
				factor = 3
				primary_culture = rzentur
			}
		}
	}
}