# Danescrown League Members

alliance = {
	first = A25
	second = A53
	trade_league = 1
	start_date = 1422.1.1
	end_date = 1581.1.1
}

alliance = {
	first = A25
	second = A54
	trade_league = 1
	start_date = 1422.1.1
	end_date = 1581.1.1
}

alliance = {
	first = A25
	second = A55
	trade_league = 1
	start_date = 1422.1.1
	end_date = 1581.1.1
}