#Country Name: Please see filename.

graphical_culture = muslimgfx

color = { 34  173  146 }



historical_idea_groups = {
	exploration_ideas
	maritime_ideas
	economic_ideas
	offensive_ideas
	expansion_ideas
	quality_ideas	
	administrative_ideas	
	influence_ideas
}

historical_units = {
	western_medieval_infantry
	chevauchee
	western_men_at_arms
	swiss_landsknechten
	dutch_maurician
	french_caracolle
	anglofrench_line
	french_dragoon
	french_bluecoat
	french_cuirassier
	french_impulse
	mixed_order_infantry
	open_order_cavalry
	napoleonic_square
	napoleonic_lancers
}

monarch_names = {
	"Viakkoc #11" = 200
	"Viakkoca #20" = 200
	
	
	#Generic Gnoll Name Lists
	"Aaryz #0" = 1
	"Arkez #0" = 1
	"Brokx #0" = 1
	"Brotiark #0" = 1
	"Bryr #0" = 1
	"Diazyn #0" = 1
	"Dokkuat #0" = 1
	"Dunez #0" = 1
	"Ezz #0" = 1
	"Garhaahz #0" = 1
	"Garrger #0" = 1
	"Ghityt #0" = 1
	"Gniax #0" = 1
	"Gnonuiz #0" = 1
	"Grerrurr #0" = 1
	"Grorr #0" = 1
	"Grutt #0" = 1
	"Guryrk #0" = 1
	"Ik #0" = 1
	"Kaxac #0" = 1
	"Kazar #0" = 1
	"Kazz #0" = 1
	"Kelzeth #0" = 1
	"Kricirr #0" = 1
	"Kricoun #0" = 1
	"Kryzzaar #0" = 1
	"Kuok #0" = 1
	"Kynzin #0" = 1
	"Mykx #0" = 1
	"Mynerg #0" = 1
	"Okkeih #0" = 1
	"Roukon #0" = 1
	"Rri #0" = 1
	"Rrikk #0" = 1
	"Rrok #0" = 1
	"Thargok #0" = 1
	"Thek #0" = 1
	"Thex #0" = 1
	"Thymkein #0" = 1
	"Uak #0" = 1
	"Uxein #0" = 1
	"Xeze #0" = 1
	"Xezer #0" = 1
	"Xycarr #0" = 1
	"Ziz #0" = 1
	"Zykk #0" = 1
	"Zykkozz #0" = 1
	
	"Almahz #0" = -1
	"Betsa #0" = -1
	"Dha #0" = -1
	"Dhezryhz #0" = -1
	"Dhodda #0" = -1
	"Dhy #0" = -1
	"Egzeth #0" = -1
	"Ehn #0" = -1
	"Elrys #0" = -1
	"Eszraah #0" = -1
	"Guiz #0" = -1
	"Hutny #0" = -1
	"Ieshath #0" = -1
	"Lyhz #0" = -1
	"Miega #0" = -1
	"Mozrush #0" = -1
	"Mrynzu #0" = -1
	"Nerrohn #0" = -1
	"Pysh #0" = -1
	"Rrhihr #0" = -1
	"Ryreis #0" = -1
	"Saemsi #0" = -1
	"Srytsiehn #0" = -1
	"Suvnaahz #0" = -1
	"Sythriath #0" = -1
	"Sytnai #0" = -1
	"Szesni #0" = -1
	"Szith #0" = -1
	"Tha #0" = -1
	"Trizry #0" = -1
	"Tsuhz #0" = -1
	"Tusah #0" = -1
	"Vaash #0" = -1
	"Vea #0" = -1
	"Verga #0" = -1
	"Vieh #0" = -1
	"Zhehr #0" = -1
}

leader_names = {

	#Generic Gnoll Surnames
	Mudcrest Swampflesh Grimsniffer Tearpaw Growlspear Rashskull Skullchomper Ridgeborn Shredspear Shredclaw Pawclaw Gashfur Bloodfur Mudfur Mudpaw Brashaxe Deadcoat Deadfang 
	"Man-Eater" Flesheater Fleshbiter Fleshgrinder Skulleater Skullchomper Bonechewer Jawlicker Bonegrinder Tonguebiter Rotsniffer Fleshdancer Handchewer Footsniffer Earsmasher
	Meatgrinder Meatcutter Meatchewer 
	
	
	
	#Generic Gnoll Titles
	"'the Carcass-Collector'" "'the Butcher'" "'the Man-flesh Lover'" "'the Halfling-Connoisseur'" "'the Dwarf-preferer'" "'the Elf-Buffeter"
	"'the All-powerful'" "'the Supremely-Handsome'" "'the Largest Sword'" "'the Longest Sword'" "'the Most Regal'" "'the Even More Regal'" "'the King'" "'the Emperor'" "'the Strongest-of-all'"
	"'the Smartest-of-all'" "'the Most-Learned'" "'the Incredibly-Gifted'"

	#Generic Evil Titles
	"'the Stout'" "'the Rash'" "'the Deadly'" "'the Master'" "'the Slaver'" "'the Warlord'" "'the Relentless'" "'the Bold'" "'the Warrior'" "'the Death-bringer'" "'the Handsome'" "'the Greedy'" "'the Tyrant'" "'the Unbreakable'" "'the Great'"
	"'the Defiler'" "'the Dead'" "'the Poker'" "'the Strangler'" "'the Twisted'" "'the Punisher'" "'the Devourer'" "'the Gravewalker'" "'the Crafty'" "'the Smart'" "'the Unwashed'" "'the Vile'" "'the Whisperer'" "'the Seer'" "'the Wicked'" "'the Brander'"
	"'the Large'" "'the Tall'" "'the Fat'" "'the Small'" "'the Strong'" "'the Clever'" "'the Crusher'" "'the Halfblooded"
}

ship_names = {
	#Generic Monstrous
	Destruction Pillage Harness Power Axe Sword Tooth Nail Hammer Wrath Anger Dominion Domination Spike Severer "Severed Head" Triumph Tremendous Victory Conquest Courage Bravery Honour Honor
	Skinflayer Skinhider "Skin-masts" Skullfeeder Skulltaker Defiance Devastation Formidable Impregnable Hunter War Warmarked Warchosen Terrible Terror Thunderer Tarrasque
	Banshee Harpy Goblintongue Slaver
}

army_names = {
	"Viakkoc Army" "Gnollish Horde" "Gnollish Raiders" "Army of $PROVINCE$"
}

fleet_names = {
	"Viakkoc Fleet" "Viakkoc Pirates" "Dog Coast Squadron" "Diven Squadron" "Damesneck Squadron" "Raider Quadron" "Looter Squadron"
}